﻿Log file open, 06/29/17 08:34:45
LogPlatformFile: Not using cached read wrapper
LogInit:Display: RandInit(-1096313156) SRandInit(-1096313156).
LogTaskGraph: Started task graph with 5 named threads and 7 total threads with 1 sets of task threads.
LogStats: Stats thread started at 0.691117
LogInit: Using libcurl 7.47.1
LogInit:  - built for x86_64-pc-win32
LogInit:  - supports SSL with OpenSSL/1.0.2g
LogInit:  - supports HTTP deflate (compression) using libz 1.2.8
LogInit:  - other features:
LogInit:      CURL_VERSION_SSL
LogInit:      CURL_VERSION_LIBZ
LogInit:      CURL_VERSION_IPV6
LogInit:      CURL_VERSION_ASYNCHDNS
LogInit:      CURL_VERSION_LARGEFILE
LogInit:      CURL_VERSION_IDN
LogInit:  CurlRequestOptions (configurable via config and command line):
LogInit:  - bVerifyPeer = false  - Libcurl will NOT verify peer certificate
LogInit:  - bUseHttpProxy = false  - Libcurl will NOT use HTTP proxy
LogInit:  - bDontReuseConnections = false  - Libcurl will reuse connections
LogInit:  - CertBundlePath = nullptr  - Libcurl will use whatever was configured at build time.
LogInit: Build: ++UE4+Release-4.15-CL-3348071
LogInit: Engine Version: 4.15.1-3348071+++UE4+Release-4.15
LogInit: Compatible Engine Version: 4.15.0-3299760+++UE4+Release-4.15
LogInit: Net CL: 3299760
LogDevObjectVersion: Number of dev versions registered: 14
LogDevObjectVersion:   Dev-Blueprints (B0D832E4-1F89-4F0D-ACCF-7EB736FD4AA2): 8
LogDevObjectVersion:   Dev-Build (E1C64328-A22C-4D53-A36C-8E866417BD8C): 0
LogDevObjectVersion:   Dev-Core (375EC13C-06E4-48FB-B500-84F0262A717E): 2
LogDevObjectVersion:   Dev-Editor (E4B068ED-F494-42E9-A231-DA0B2E46BB41): 14
LogDevObjectVersion:   Dev-Framework (CFFC743F-43B0-4480-9391-14DF171D2073): 22
LogDevObjectVersion:   Dev-Mobile (B02B49B5-BB20-44E9-A304-32B752E40360): 0
LogDevObjectVersion:   Dev-Networking (A4E4105C-59A1-49B5-A7C5-40C4547EDFEE): 0
LogDevObjectVersion:   Dev-Online (39C831C9-5AE6-47DC-9A44-9C173E1C8E7C): 0
LogDevObjectVersion:   Dev-Physics (78F01B33-EBEA-4F98-B9B4-84EACCB95AA2): 0
LogDevObjectVersion:   Dev-Platform (6631380F-2D4D-43E0-8009-CF276956A95A): 0
LogDevObjectVersion:   Dev-Rendering (12F88B9F-8875-4AFC-A67C-D90C383ABD29): 12
LogDevObjectVersion:   Dev-Sequencer (7B5AE74C-D270-4C10-A958-57980B212A5A): 3
LogDevObjectVersion:   Dev-VR (D7296918-1DD6-4BDD-9DE2-64A83CC13884): 0
LogDevObjectVersion:   Dev-LoadTimes (C2A15278-BFE7-4AFE-6C17-90FF531DF755): 1
LogInit: Compiled (64-bit): Mar 15 2017 16:58:26
LogInit: Compiled with Visual C++: 19.00.23026.00
LogInit: Build Configuration: Development
LogInit: Branch Name: ++UE4+Release-4.15
LogInit: Command line: 
LogInit: Base directory: C:/Users/Andre/Desktop/IORD/WindowsNoEditor/IORD/Binaries/Win64/
LogInit: Installed Engine Build: 0
LogInit: Presizing for max 2097152 objects, including 0 objects not considered by GC, pre-allocating 0 bytes for permanent pool.
LogStreaming:Display: Async Loading initialized: New Async IO: true, Event Driven Loader: true, Async Loading Thread: false
LogInit: Object subsystem initialized
[2017.06.29-07.34.45:624][  0]LogInit: Selected Device Profile: [WindowsNoEditor]
[2017.06.29-07.34.45:624][  0]LogInit: Applying CVar settings loaded from the selected device profile: [WindowsNoEditor]
[2017.06.29-07.34.45:634][  0]LogInit: Computer: DESKTOP-MFHRREC
[2017.06.29-07.34.45:634][  0]LogInit: User: Andre
[2017.06.29-07.34.45:634][  0]LogInit: CPU Page size=65536, Cores=3
[2017.06.29-07.34.45:634][  0]LogInit: High frequency timer resolution =3.429408 MHz
[2017.06.29-07.34.45:634][  0]LogMemory: Memory total: Physical=7.9GB (8GB approx)
[2017.06.29-07.34.45:634][  0]LogMemory: Platform Memory Stats for WindowsNoEditor
[2017.06.29-07.34.45:634][  0]LogMemory: Process Physical Memory: 88.09 MB used, 88.09 MB peak
[2017.06.29-07.34.45:634][  0]LogMemory: Process Virtual Memory: 102.12 MB used, 102.12 MB peak
[2017.06.29-07.34.45:634][  0]LogMemory: Physical Memory: 4637.35 MB used,  3455.01 MB free, 8092.36 MB total
[2017.06.29-07.34.45:634][  0]LogMemory: Virtual Memory: 337.69 MB used,  3455.01 MB free, 134217728.00 MB total
[2017.06.29-07.34.45:753][  0]LogTextLocalizationManager: No translations for ('pt-PT') exist, falling back to 'en' for localization and internationalization data.
[2017.06.29-07.34.45:844][  0]LogD3D11RHI: D3D11 adapters:
[2017.06.29-07.34.46:391][  0]LogD3D11RHI:    0. 'NVIDIA GeForce GTX 1060 3GB' (Feature Level 11_0)
[2017.06.29-07.34.46:391][  0]LogD3D11RHI:       3019/0/4046 MB DedicatedVideo/DedicatedSystem/SharedSystem, Outputs:1, VendorId:0x10de
[2017.06.29-07.34.46:393][  0]LogD3D11RHI:    1. 'Microsoft Basic Render Driver' (Feature Level 11_0)
[2017.06.29-07.34.46:393][  0]LogD3D11RHI:       0/0/4046 MB DedicatedVideo/DedicatedSystem/SharedSystem, Outputs:0, VendorId:0x1414
[2017.06.29-07.34.46:393][  0]LogD3D11RHI: Chosen D3D11 Adapter: 0
[2017.06.29-07.34.46:407][  0]LogD3D11RHI: Creating new Direct3DDevice
[2017.06.29-07.34.46:407][  0]LogD3D11RHI:     GPU DeviceId: 0x1c02 (for the marketing name, search the web for "GPU Device Id")
[2017.06.29-07.34.46:407][  0]LogWindows: EnumDisplayDevices:
[2017.06.29-07.34.46:407][  0]LogWindows:    0. 'NVIDIA GeForce GTX 1060 3GB' (P:1 D:1)
[2017.06.29-07.34.46:408][  0]LogWindows:    1. 'NVIDIA GeForce GTX 1060 3GB' (P:0 D:0)
[2017.06.29-07.34.46:408][  0]LogWindows:    2. 'NVIDIA GeForce GTX 1060 3GB' (P:0 D:0)
[2017.06.29-07.34.46:408][  0]LogWindows:    3. 'NVIDIA GeForce GTX 1060 3GB' (P:0 D:0)
[2017.06.29-07.34.46:408][  0]LogWindows: DebugString: FoundDriverCount:4 
[2017.06.29-07.34.46:408][  0]LogD3D11RHI:     Adapter Name: NVIDIA GeForce GTX 1060 3GB
[2017.06.29-07.34.46:408][  0]LogD3D11RHI:   Driver Version: 382.53 (internal:22.21.13.8253, unified:382.53)
[2017.06.29-07.34.46:408][  0]LogD3D11RHI:      Driver Date: 6-7-2017
[2017.06.29-07.34.46:408][  0]LogRHI: Texture pool is 1361 MB (70% of 1945 MB)
[2017.06.29-07.34.47:042][  0]LogD3D11RHI: Async texture creation enabled
[2017.06.29-07.34.47:078][  0]LogD3D11RHI: GPU Timing Frequency: 1000.000000 (Debug: 2 1)
[2017.06.29-07.34.47:090][  0]LogSlate: Using Freetype 2.6.0
[2017.06.29-07.34.47:091][  0]LogSlate: SlateFontCache - WITH_FREETYPE: 1, WITH_HARFBUZZ: 1
[2017.06.29-07.34.47:091][  0]LogSlate: SlateFontCache - WITH_FREETYPE: 1, WITH_HARFBUZZ: 1
[2017.06.29-07.34.47:290][  0]LogAssetRegistry: FAssetRegistry took 0.0059 seconds to start up
[2017.06.29-07.34.47:293][  0]LogPackageLocalizationCache: Processed 3 localized package path(s) for 1 prioritized culture(s) in 0.003083 seconds
[2017.06.29-07.34.47:293][  0]LogPakFile: New pak file ../../../IORD/Content/Paks/IORD-WindowsNoEditor.pak added to pak precacher.
[2017.06.29-07.34.47:300][  0]LogContentStreaming: Texture pool size is 1000.00 MB
[2017.06.29-07.34.47:300][  0]LogInit: Selected Device Profile: [WindowsNoEditor]
[2017.06.29-07.34.47:351][  0]LogBlueprintUserMessages:Warning: DEBUG: LocalNotification DefaultPlatformService NOT FOUND
[2017.06.29-07.34.47:367][  0]LogNetVersion: GetLocalNetworkVersion: CL: 3299760, ProjectName: iord, ProjectVersion: , EngineNetworkVersion: 2, GameNetworkVersion: 0, NetworkChecksum: 377586331
[2017.06.29-07.34.47:417][  0]LogInit: WinSock: version 1.1 (2.2), MaxSocks=32767, MaxUdp=65467
[2017.06.29-07.34.47:430][  0]LogMoviePlayer: Initializing movie player
[2017.06.29-07.34.47:495][  0]LogUObjectArray: 28465 objects as part of root set at end of initial load.
[2017.06.29-07.34.47:495][  0]LogUObjectAllocator: 5694976 out of 0 bytes used by permanent object pool.
[2017.06.29-07.34.47:495][  0]LogUObjectArray: CloseDisregardForGC: 0/0 objects in disregard for GC pool
[2017.06.29-07.34.47:506][  0]LogEngine: Initializing Engine...
[2017.06.29-07.34.47:507][  0]LogHMD: Failed to initialize OpenVR with code 110
[2017.06.29-07.34.47:570][  0]LogInit: XAudio2 using 'Altifalantes (Realtek High Definition Audio)' : 2 channels at 48 kHz using 32 bits per sample (channel mask 0x3)
[2017.06.29-07.34.47:593][  0]LogInit: FAudioDevice initialized.
[2017.06.29-07.34.47:604][  0]LogInit: Texture streaming: Enabled
[2017.06.29-07.34.47:612][  0]LogInit:Display: Game Engine Initialized.
[2017.06.29-07.34.47:612][  0]LogInit:Display: Starting Game.
[2017.06.29-07.34.47:612][  0]LogNet: Browse: /Game/Scene?Name=Player
[2017.06.29-07.34.47:613][  0]LogLoad: LoadMap: /Game/Scene?Name=Player
[2017.06.29-07.34.47:636][  0]LogMemory: Platform Memory Stats for WindowsNoEditor
[2017.06.29-07.34.47:636][  0]LogMemory: Process Physical Memory: 196.77 MB used, 210.48 MB peak
[2017.06.29-07.34.47:636][  0]LogMemory: Process Virtual Memory: 271.91 MB used, 286.23 MB peak
[2017.06.29-07.34.47:636][  0]LogMemory: Physical Memory: 4754.16 MB used,  3338.20 MB free, 8092.36 MB total
[2017.06.29-07.34.47:636][  0]LogMemory: Virtual Memory: 714.37 MB used,  3338.20 MB free, 134217728.00 MB total
[2017.06.29-07.34.47:636][  0]LogMemory: 
[2017.06.29-07.34.47:636][  0]Allocator Stats for binned2: (not implemented)
[2017.06.29-07.34.47:683][  0]LogAIModule: Creating AISystem for world Scene
[2017.06.29-07.34.47:684][  0]LogLoad: Game class is 'GameModeBase'
[2017.06.29-07.34.47:686][  0]LogWorld: Bringing World /Game/Scene.Scene up for play (max tick rate 0) at 2017.06.29-08.34.47
[2017.06.29-07.34.47:686][  0]LogWorld: Bringing up level for play took: 0.001284
[2017.06.29-07.34.47:687][  0]LogGameMode: FindPlayerStart: PATHS NOT DEFINED or NO PLAYERSTART with positive rating
[2017.06.29-07.34.47:710][  0]LogLoad: Took 0.097862 seconds to LoadMap(/Game/Scene)
[2017.06.29-07.34.47:711][  0]LogSlate: Took 0.000180 seconds to synchronously load lazily loaded font '../../../Engine/Content/EngineFonts/Faces/RobotoBold.ufont' (160K)
[2017.06.29-07.34.47:746][  0]LogLoad: (Engine Initialization) Total time: 3.10 seconds
[2017.06.29-07.34.47:746][  0]LogExternalProfiler: No external profilers were discovered.  External profiling features will not be available.
[2017.06.29-07.34.47:763][  0]LogOcInput: OculusInput pre-init called
[2017.06.29-07.34.47:837][  2]LogRenderer: Reallocating scene render targets to support 1600x900 NumSamples 1 (Frame:2).
[2017.06.29-07.34.53:659][358]LogSlate: Took 0.000255 seconds to synchronously load lazily loaded font '../../../Engine/Content/Slate/Fonts/Roboto-Regular.ttf' (155K)
[2017.06.29-07.35.10:575][383]LogBlueprintUserMessages: [Scene_C_0] [DEBUG] Drawing points
[2017.06.29-07.35.10:577][383]LogSlate: Took 0.000224 seconds to synchronously load lazily loaded font '../../../Engine/Content/EngineFonts/Faces/RobotoRegular.ufont' (155K)
[2017.06.29-07.35.13:220][547]LogBlueprintUserMessages: [Scene_C_0] [DEBUG] Drawing points
[2017.06.29-07.35.13:220][547]LogBlueprintUserMessages: [Scene_C_0] [DEBUG] Drawing normals
[2017.06.29-07.35.20:798][ 15]Closing by request
[2017.06.29-07.35.20:798][ 15]LogWindows: FPlatformMisc::RequestExit(0)
[2017.06.29-07.35.20:799][ 16]LogMoviePlayer: Shutting down movie player
[2017.06.29-07.35.21:534][ 16]LogSlate: Request Window 'IORD (64-bit, PCD3D_SM5)' being destroyed
[2017.06.29-07.35.21:584][ 16]LogSlate: Window 'IORD (64-bit, PCD3D_SM5)' being destroyed
[2017.06.29-07.35.21:612][ 16]LogWindowsTextInputMethodSystem:Display: IME system now deactivated.
[2017.06.29-07.35.21:663][ 16]LogSlate: HittestGrid destroyed
[2017.06.29-07.35.21:716][ 16]LogExit: Preparing to exit.
[2017.06.29-07.35.21:818][ 16]LogExit: Game engine shut down
[2017.06.29-07.35.21:869][ 16]LogObj: Freed 32b from 1 cluster array pools.
[2017.06.29-07.35.21:869][ 16]LogExit: Object subsystem successfully closed.
[2017.06.29-07.35.21:956][ 16]LogD3D11RHI: Shutdown
[2017.06.29-07.35.21:956][ 16]LogD3D11RHI: CleanupD3DDevice
[2017.06.29-07.35.22:060][ 16]LogD3D11RHI: ~FD3D11DynamicRHI
[2017.06.29-07.35.22:062][ 16]LogModuleManager: Shutting down and abandoning module AutomationController (146)
[2017.06.29-07.35.22:062][ 16]LogModuleManager: Shutting down and abandoning module AutomationWorker (144)
[2017.06.29-07.35.22:062][ 16]LogModuleManager: Shutting down and abandoning module AIModule (142)
[2017.06.29-07.35.22:062][ 16]LogModuleManager: Shutting down and abandoning module GameplayDebugger (141)
[2017.06.29-07.35.22:062][ 16]LogModuleManager: Shutting down and abandoning module WmfMediaFactory (138)
[2017.06.29-07.35.22:062][ 16]LogModuleManager: Shutting down and abandoning module MfMediaFactory (136)
[2017.06.29-07.35.22:062][ 16]LogModuleManager: Shutting down and abandoning module AvfMediaFactory (134)
[2017.06.29-07.35.22:062][ 16]LogModuleManager: Shutting down and abandoning module AndroidMediaFactory (132)
[2017.06.29-07.35.22:062][ 16]LogModuleManager: Shutting down and abandoning module Media (131)
[2017.06.29-07.35.22:062][ 16]LogModuleManager: Shutting down and abandoning module CharacterAI (128)
[2017.06.29-07.35.22:062][ 16]LogModuleManager: Shutting down and abandoning module SessionServices (126)
[2017.06.29-07.35.22:062][ 16]LogModuleManager: Shutting down and abandoning module GeometryCache (124)
[2017.06.29-07.35.22:062][ 16]LogModuleManager: Shutting down and abandoning module Niagara (122)
[2017.06.29-07.35.22:062][ 16]LogModuleManager: Shutting down and abandoning module StreamingPauseRendering (120)
[2017.06.29-07.35.22:062][ 16]LogModuleManager: Shutting down and abandoning module AnalyticsET (118)
[2017.06.29-07.35.22:062][ 16]LogModuleManager: Shutting down and abandoning module ProfilerService (116)
[2017.06.29-07.35.22:290][ 16]LogModuleManager: Shutting down and abandoning module TaskGraph (114)
[2017.06.29-07.35.22:290][ 16]LogModuleManager: Shutting down and abandoning module SteamVRController (112)
[2017.06.29-07.35.22:290][ 16]LogModuleManager: Shutting down and abandoning module SteamVR (110)
[2017.06.29-07.35.22:290][ 16]LogModuleManager: Shutting down and abandoning module ProceduralMeshComponent (108)
[2017.06.29-07.35.22:290][ 16]LogModuleManager: Shutting down and abandoning module OculusLibrary (106)
[2017.06.29-07.35.22:290][ 16]LogModuleManager: Shutting down and abandoning module OculusInput (104)
[2017.06.29-07.35.22:290][ 16]LogModuleManager: Shutting down and abandoning module MobilePatchingUtils (102)
[2017.06.29-07.35.22:290][ 16]LogModuleManager: Shutting down and abandoning module CustomMeshComponent (100)
[2017.06.29-07.35.22:290][ 16]LogModuleManager: Shutting down and abandoning module CableComponent (98)
[2017.06.29-07.35.22:290][ 16]LogModuleManager: Shutting down and abandoning module ArchVisCharacter (96)
[2017.06.29-07.35.22:290][ 16]LogModuleManager: Shutting down and abandoning module HTML5Networking (92)
[2017.06.29-07.35.22:290][ 16]LogModuleManager: Shutting down and abandoning module IORD (90)
[2017.06.29-07.35.22:290][ 16]LogModuleManager: Shutting down and abandoning module PhysXVehicles (88)
[2017.06.29-07.35.22:290][ 16]LogModuleManager: Shutting down and abandoning module LocationServicesBPLibrary (86)
[2017.06.29-07.35.22:290][ 16]LogModuleManager: Shutting down and abandoning module UdpMessaging (84)
[2017.06.29-07.35.22:290][ 16]LogModuleManager: Shutting down and abandoning module TcpMessaging (82)
[2017.06.29-07.35.22:290][ 16]LogModuleManager: Shutting down and abandoning module FacialAnimation (80)
[2017.06.29-07.35.22:290][ 16]LogModuleManager: Shutting down and abandoning module LightPropagationVolumeRuntime (78)
[2017.06.29-07.35.22:290][ 16]LogModuleManager: Shutting down and abandoning module Paper2D (76)
[2017.06.29-07.35.22:290][ 16]LogModuleManager: Shutting down and abandoning module WindowsMoviePlayer (74)
[2017.06.29-07.35.22:290][ 16]LogModuleManager: Shutting down and abandoning module WmfMedia (72)
[2017.06.29-07.35.22:290][ 16]LogModuleManager: Shutting down and abandoning module MfMedia (70)
[2017.06.29-07.35.22:290][ 16]LogModuleManager: Shutting down and abandoning module MediaAssets (68)
[2017.06.29-07.35.22:290][ 16]LogModuleManager: Shutting down and abandoning module GameLiveStreaming (66)
[2017.06.29-07.35.22:290][ 16]LogModuleManager: Shutting down and abandoning module UMG (64)
[2017.06.29-07.35.22:290][ 16]LogModuleManager: Shutting down and abandoning module SlateReflector (62)
[2017.06.29-07.35.22:290][ 16]LogModuleManager: Shutting down and abandoning module Slate (60)
[2017.06.29-07.35.22:290][ 16]LogModuleManager: Shutting down and abandoning module Messaging (58)
[2017.06.29-07.35.22:290][ 16]LogModuleManager: Shutting down and abandoning module HeadMountedDisplay (56)
[2017.06.29-07.35.22:290][ 16]LogModuleManager: Shutting down and abandoning module XAudio2 (54)
[2017.06.29-07.35.22:290][ 16]LogModuleManager: Shutting down and abandoning module Networking (52)
[2017.06.29-07.35.22:290][ 16]LogModuleManager: Shutting down and abandoning module Core (48)
[2017.06.29-07.35.22:290][ 16]LogModuleManager: Shutting down and abandoning module AssetRegistry (46)
[2017.06.29-07.35.22:291][ 16]LogModuleManager: Shutting down and abandoning module ImageWrapper (44)
[2017.06.29-07.35.22:291][ 16]LogModuleManager: Shutting down and abandoning module InputCore (42)
[2017.06.29-07.35.22:291][ 16]LogModuleManager: Shutting down and abandoning module OculusRift (40)
[2017.06.29-07.35.22:291][ 16]LogModuleManager: Shutting down and abandoning module GearVR (38)
[2017.06.29-07.35.22:291][ 16]LogModuleManager: Shutting down and abandoning module ExampleDeviceProfileSelector (36)
[2017.06.29-07.35.22:291][ 16]LogModuleManager: Shutting down and abandoning module OnlineSubsystem (32)
[2017.06.29-07.35.22:291][ 16]LogOnline:Display: Unloading online subsystem: NULL
[2017.06.29-07.35.22:291][ 16]LogModuleManager: Shutting down and abandoning module HTTP (31)
[2017.06.29-07.35.22:291][ 16]LogHttp:Display: Http module shutting down, but needs to wait on 1 outstanding Http requests:
[2017.06.29-07.35.22:291][ 16]LogHttp:Display: 	verb=[POST] url=[https://datarouter.ol.epicgames.com/datarouter/api/v1/public/data?SessionID=%7BD28A28EF-40BD-C9DA-380A-DD8E607F4AD1%7D&AppID=UEGame.Rocket.Release%7C00000000000000000000000000000000%7CUE4Game&AppVersion=4.15.1-3348071%2B%2B%2BUE4%2BRelease-4.15&UserID=ANON-%7B8B4B1F15-418E-01D8-5054-2290D50D3E32%7D%7C%7C&AppEnvironment=datacollector-binary&UploadType=eteventstream] status=Processing
[2017.06.29-07.35.22:291][ 16]LogHttp:Display: Sleeping 0.5s to wait for 1 outstanding Http requests.
[2017.06.29-07.35.22:794][ 16]LogModuleManager: Shutting down and abandoning module SSL (30)
[2017.06.29-07.35.22:794][ 16]LogModuleManager: Shutting down and abandoning module ShaderCore (26)
[2017.06.29-07.35.22:794][ 16]LogModuleManager: Shutting down and abandoning module Landscape (24)
[2017.06.29-07.35.22:794][ 16]LogModuleManager: Shutting down and abandoning module SlateRHIRenderer (22)
[2017.06.29-07.35.22:795][ 16]LogModuleManager: Shutting down and abandoning module OpenGLDrv (20)
[2017.06.29-07.35.22:795][ 16]LogModuleManager: Shutting down and abandoning module D3D11RHI (18)
[2017.06.29-07.35.22:795][ 16]LogModuleManager: Shutting down and abandoning module AnimGraphRuntime (16)
[2017.06.29-07.35.22:795][ 16]LogModuleManager: Shutting down and abandoning module Renderer (14)
[2017.06.29-07.35.22:795][ 16]LogModuleManager: Shutting down and abandoning module Engine (12)
[2017.06.29-07.35.22:795][ 16]LogModuleManager: Shutting down and abandoning module CoreUObject (10)
[2017.06.29-07.35.22:795][ 16]LogModuleManager: Shutting down and abandoning module NetworkFile (8)
[2017.06.29-07.35.22:795][ 16]LogModuleManager: Shutting down and abandoning module StreamingFile (6)
[2017.06.29-07.35.22:795][ 16]LogModuleManager: Shutting down and abandoning module SandboxFile (4)
[2017.06.29-07.35.22:795][ 16]LogModuleManager: Shutting down and abandoning module PakFile (2)
[2017.06.29-07.35.22:796][ 16]LogExit: Exiting.
[2017.06.29-07.35.22:797][ 16]Log file closed, 06/29/17 08:35:22
