Engine\Binaries\Win64\CrashReportClient.exe	2017-04-13T18:35:45.476Z
IORD\Binaries\Win64\IORD.exe	2017-06-29T07:32:15.697Z
IORD.exe	2017-06-29T07:33:11.046Z
Engine\Extras\Redist\en-us\UE4PrereqSetup_x64.exe	2017-04-13T18:41:06.154Z
Engine\Binaries\ThirdParty\PhysX\Win64\VS2015\PxFoundationPROFILE_x64.dll	2017-04-13T18:34:43.650Z
Engine\Binaries\ThirdParty\PhysX\Win64\VS2015\PxPvdSDKPROFILE_x64.dll	2017-04-13T18:34:43.752Z
Engine\Binaries\ThirdParty\PhysX\Win64\VS2015\PhysX3PROFILE_x64.dll	2017-04-13T18:34:43.533Z
Engine\Binaries\ThirdParty\PhysX\Win64\VS2015\PhysX3CookingPROFILE_x64.dll	2017-04-13T18:34:43.145Z
Engine\Binaries\ThirdParty\PhysX\Win64\VS2015\PhysX3CommonPROFILE_x64.dll	2017-04-13T18:34:43.085Z
Engine\Binaries\ThirdParty\PhysX\Win64\VS2015\APEX_ClothingPROFILE_x64.dll	2017-04-13T18:34:39.060Z
Engine\Binaries\ThirdParty\PhysX\Win64\VS2015\APEX_DestructiblePROFILE_x64.dll	2017-04-13T18:34:40.260Z
Engine\Binaries\ThirdParty\PhysX\Win64\VS2015\APEX_LegacyPROFILE_x64.dll	2017-04-13T18:34:40.586Z
Engine\Binaries\ThirdParty\PhysX\Win64\VS2015\ApexFrameworkPROFILE_x64.dll	2017-04-13T18:34:41.730Z
Engine\Binaries\ThirdParty\Ogg\Win64\VS2015\libogg_64.dll	2017-04-13T18:34:34.967Z
Engine\Binaries\ThirdParty\Vorbis\Win64\VS2015\libvorbis_64.dll	2017-04-13T18:34:50.338Z
Engine\Binaries\ThirdParty\Vorbis\Win64\VS2015\libvorbisfile_64.dll	2017-04-13T18:34:50.363Z
Engine\Binaries\ThirdParty\Oculus\OculusMobile\SDK_1_0_3\Win64\VrApiShim.dll	2017-04-13T18:34:34.572Z
Engine\Binaries\ThirdParty\OpenVR\OpenVRv1_0_2\Win64\openvr_api.dll	2017-04-13T18:34:35.647Z
Engine\Build\Build.version	2017-04-13T18:38:18.737Z
Engine\Content\Slate\Checkerboard.png	2017-04-13T18:39:51.799Z
Engine\Content\Slate\Common\BoxShadow.png	2017-04-13T18:39:51.800Z
Engine\Content\Slate\Common\Button.png	2017-04-13T18:39:51.801Z
Engine\Content\Slate\Common\Button_Disabled.png	2017-04-13T18:39:51.802Z
Engine\Content\Slate\Common\Button_Hovered.png	2017-04-13T18:39:51.803Z
Engine\Content\Slate\Common\Button_Pressed.png	2017-04-13T18:39:51.805Z
Engine\Content\Slate\Common\Check.png	2017-04-13T18:39:51.806Z
Engine\Content\Slate\Common\CheckBox.png	2017-04-13T18:39:51.807Z
Engine\Content\Slate\Common\CheckBox_Checked.png	2017-04-13T18:39:51.808Z
Engine\Content\Slate\Common\CheckBox_Checked_Hovered.png	2017-04-13T18:39:51.810Z
Engine\Content\Slate\Common\CheckBox_Hovered.png	2017-04-13T18:39:51.811Z
Engine\Content\Slate\Common\CheckBox_Undetermined.png	2017-04-13T18:39:51.811Z
Engine\Content\Slate\Common\CheckBox_Undetermined_Hovered.png	2017-04-13T18:39:51.812Z
Engine\Content\Slate\Common\Checker.png	2017-04-13T18:39:51.813Z
Engine\Content\Slate\Common\Circle.png	2017-04-13T18:39:51.815Z
Engine\Content\Slate\Common\ColorGradingWheel.png	2017-04-13T18:39:51.816Z
Engine\Content\Slate\Common\ColorPicker_Mode_16x.png	2017-04-13T18:39:51.817Z
Engine\Content\Slate\Common\ColorPicker_Separator.png	2017-04-13T18:39:51.819Z
Engine\Content\Slate\Common\ColorPicker_SliderHandle.png	2017-04-13T18:39:51.820Z
Engine\Content\Slate\Common\ColorSpectrum.png	2017-04-13T18:39:51.822Z
Engine\Content\Slate\Common\ColorWheel.png	2017-04-13T18:39:51.823Z
Engine\Content\Slate\Common\ColumnHeader.png	2017-04-13T18:39:51.824Z
Engine\Content\Slate\Common\ColumnHeaderMenuButton_Hovered.png	2017-04-13T18:39:51.827Z
Engine\Content\Slate\Common\ColumnHeaderMenuButton_Normal.png	2017-04-13T18:39:51.828Z
Engine\Content\Slate\Common\ColumnHeader_Arrow.png	2017-04-13T18:39:51.825Z
Engine\Content\Slate\Common\ColumnHeader_Hovered.png	2017-04-13T18:39:51.826Z
Engine\Content\Slate\Common\ComboArrow.png	2017-04-13T18:39:51.829Z
Engine\Content\Slate\Common\CursorPing.png	2017-04-13T18:39:51.830Z
Engine\Content\Slate\Common\DebugBorder.PNG	2017-04-13T18:39:51.831Z
Engine\Content\Slate\Common\Delimiter.png	2017-04-13T18:39:51.831Z
Engine\Content\Slate\Common\DownArrow.png	2017-04-13T18:39:51.833Z
Engine\Content\Slate\Common\DropZoneIndicator_Above.png	2017-04-13T18:39:51.834Z
Engine\Content\Slate\Common\DropZoneIndicator_Below.png	2017-04-13T18:39:51.835Z
Engine\Content\Slate\Common\DropZoneIndicator_Onto.png	2017-04-13T18:39:51.844Z
Engine\Content\Slate\Common\EditableTextSelectionBackground.png	2017-04-13T18:39:51.845Z
Engine\Content\Slate\Common\EventMessage_Default.png	2017-04-13T18:39:51.847Z
Engine\Content\Slate\Common\ExpansionButton_CloseOverlay.png	2017-04-13T18:39:51.848Z
Engine\Content\Slate\Common\GroupBorder.png	2017-04-13T18:39:51.849Z
Engine\Content\Slate\Common\HeaderSplitterGrip.PNG	2017-04-13T18:39:51.850Z
Engine\Content\Slate\Common\LastColumnHeader_Hovered.png	2017-04-13T18:39:51.851Z
Engine\Content\Slate\Common\NoiseBackground.png	2017-04-13T18:39:51.852Z
Engine\Content\Slate\Common\ProgressBar_Background.png	2017-04-13T18:39:51.853Z
Engine\Content\Slate\Common\ProgressBar_Fill.png	2017-04-13T18:39:51.854Z
Engine\Content\Slate\Common\ProgressBar_Marquee.PNG	2017-04-13T18:39:51.855Z
Engine\Content\Slate\Common\RadioButton_SelectedBack_16x.png	2017-04-13T18:39:51.858Z
Engine\Content\Slate\Common\RadioButton_Selected_16x.png	2017-04-13T18:39:51.857Z
Engine\Content\Slate\Common\RadioButton_Unselected_16x.png	2017-04-13T18:39:51.859Z
Engine\Content\Slate\Common\RoundedSelection_16x.PNG	2017-04-13T18:39:51.860Z
Engine\Content\Slate\Common\Scrollbar_Background_Horizontal.png	2017-04-13T18:39:51.875Z
Engine\Content\Slate\Common\Scrollbar_Background_Vertical.png	2017-04-13T18:39:51.876Z
Engine\Content\Slate\Common\Scrollbar_Thumb.png	2017-04-13T18:39:51.878Z
Engine\Content\Slate\Common\ScrollBorderShadowBottom.png	2017-04-13T18:39:51.879Z
Engine\Content\Slate\Common\ScrollBorderShadowTop.png	2017-04-13T18:39:51.880Z
Engine\Content\Slate\Common\ScrollBoxShadowBottom.png	2017-04-13T18:39:51.881Z
Engine\Content\Slate\Common\ScrollBoxShadowLeft.png	2017-04-13T18:39:51.882Z
Engine\Content\Slate\Common\ScrollBoxShadowRight.png	2017-04-13T18:39:51.883Z
Engine\Content\Slate\Common\ScrollBoxShadowTop.png	2017-04-13T18:39:51.883Z
Engine\Content\Slate\Common\SearchGlass.PNG	2017-04-13T18:39:51.885Z
Engine\Content\Slate\Common\Selection.png	2017-04-13T18:39:51.886Z
Engine\Content\Slate\Common\Selector.png	2017-04-13T18:39:51.887Z
Engine\Content\Slate\Common\Separator.png	2017-04-13T18:39:51.888Z
Engine\Content\Slate\Common\SmallCheck.png	2017-04-13T18:39:51.889Z
Engine\Content\Slate\Common\SmallCheckBox.png	2017-04-13T18:39:51.890Z
Engine\Content\Slate\Common\SmallCheckBox_Checked.png	2017-04-13T18:39:51.891Z
Engine\Content\Slate\Common\SmallCheckBox_Checked_Hovered.png	2017-04-13T18:39:51.899Z
Engine\Content\Slate\Common\SmallCheckBox_Hovered.png	2017-04-13T18:39:51.900Z
Engine\Content\Slate\Common\SmallCheckBox_Undetermined.png	2017-04-13T18:39:51.901Z
Engine\Content\Slate\Common\SmallCheckBox_Undetermined_Hovered.png	2017-04-13T18:39:51.902Z
Engine\Content\Slate\Common\SortDownArrow.png	2017-04-13T18:39:51.903Z
Engine\Content\Slate\Common\SortDownArrows.png	2017-04-13T18:39:51.904Z
Engine\Content\Slate\Common\SortUpArrow.png	2017-04-13T18:39:51.905Z
Engine\Content\Slate\Common\SortUpArrows.png	2017-04-13T18:39:51.906Z
Engine\Content\Slate\Common\SpinArrows.png	2017-04-13T18:39:51.907Z
Engine\Content\Slate\Common\Spinbox.PNG	2017-04-13T18:39:51.907Z
Engine\Content\Slate\Common\Spinbox_Fill.png	2017-04-13T18:39:51.909Z
Engine\Content\Slate\Common\Spinbox_Fill_Dark.png	2017-04-13T18:39:51.910Z
Engine\Content\Slate\Common\Spinbox_Fill_Hovered.png	2017-04-13T18:39:51.911Z
Engine\Content\Slate\Common\Spinbox_Fill_Hovered_Dark.png	2017-04-13T18:39:51.912Z
Engine\Content\Slate\Common\Spinbox_Hovered.png	2017-04-13T18:39:51.913Z
Engine\Content\Slate\Common\SplitterHandleHighlight.png	2017-04-13T18:39:51.914Z
Engine\Content\Slate\Common\SubmenuArrow.png	2017-04-13T18:39:51.915Z
Engine\Content\Slate\Common\TableViewHeader.png	2017-04-13T18:39:51.916Z
Engine\Content\Slate\Common\TableViewMajorColumn.png	2017-04-13T18:39:51.916Z
Engine\Content\Slate\Common\TextBlockHighlightShape.png	2017-04-13T18:39:51.918Z
Engine\Content\Slate\Common\TextBlockHighlightShape_Empty.png	2017-04-13T18:39:51.918Z
Engine\Content\Slate\Common\TextBox.png	2017-04-13T18:39:51.919Z
Engine\Content\Slate\Common\TextBoxLabelBorder.PNG	2017-04-13T18:39:51.926Z
Engine\Content\Slate\Common\TextBox_Dark.png	2017-04-13T18:39:51.920Z
Engine\Content\Slate\Common\TextBox_Hovered.png	2017-04-13T18:39:51.921Z
Engine\Content\Slate\Common\TextBox_Hovered_Dark.png	2017-04-13T18:39:51.922Z
Engine\Content\Slate\Common\TextBox_ReadOnly.png	2017-04-13T18:39:51.923Z
Engine\Content\Slate\Common\TextBox_Special.png	2017-04-13T18:39:51.924Z
Engine\Content\Slate\Common\TextBox_Special_Hovered.png	2017-04-13T18:39:51.925Z
Engine\Content\Slate\Common\Throbber_Piece.png	2017-04-13T18:39:51.927Z
Engine\Content\Slate\Common\TreeArrow_Collapsed.png	2017-04-13T18:39:51.927Z
Engine\Content\Slate\Common\TreeArrow_Collapsed_Hovered.png	2017-04-13T18:39:51.928Z
Engine\Content\Slate\Common\TreeArrow_Expanded.png	2017-04-13T18:39:51.930Z
Engine\Content\Slate\Common\TreeArrow_Expanded_Hovered.png	2017-04-13T18:39:51.930Z
Engine\Content\Slate\Common\UpArrow.png	2017-04-13T18:39:51.931Z
Engine\Content\Slate\Common\VolumeControl_High.png	2017-04-13T18:39:51.932Z
Engine\Content\Slate\Common\VolumeControl_Low.png	2017-04-13T18:39:51.933Z
Engine\Content\Slate\Common\VolumeControl_Mid.png	2017-04-13T18:39:51.934Z
Engine\Content\Slate\Common\VolumeControl_Muted.png	2017-04-13T18:39:51.936Z
Engine\Content\Slate\Common\VolumeControl_Off.png	2017-04-13T18:39:51.937Z
Engine\Content\Slate\Common\WhiteGroupBorder.png	2017-04-13T18:39:51.938Z
Engine\Content\Slate\Common\X.PNG	2017-04-13T18:39:51.959Z
Engine\Content\Slate\Common\Window\WindowBackground.png	2017-04-13T18:39:51.939Z
Engine\Content\Slate\Common\Window\WindowBorder.png	2017-04-13T18:39:51.940Z
Engine\Content\Slate\Common\Window\WindowButton_Close_Hovered.png	2017-04-13T18:39:51.941Z
Engine\Content\Slate\Common\Window\WindowButton_Close_Normal.png	2017-04-13T18:39:51.942Z
Engine\Content\Slate\Common\Window\WindowButton_Close_Pressed.png	2017-04-13T18:39:51.943Z
Engine\Content\Slate\Common\Window\WindowButton_Maximize_Disabled.png	2017-04-13T18:39:51.944Z
Engine\Content\Slate\Common\Window\WindowButton_Maximize_Hovered.png	2017-04-13T18:39:51.945Z
Engine\Content\Slate\Common\Window\WindowButton_Maximize_Normal.png	2017-04-13T18:39:51.946Z
Engine\Content\Slate\Common\Window\WindowButton_Maximize_Pressed.png	2017-04-13T18:39:51.947Z
Engine\Content\Slate\Common\Window\WindowButton_Minimize_Disabled.png	2017-04-13T18:39:51.948Z
Engine\Content\Slate\Common\Window\WindowButton_Minimize_Hovered.png	2017-04-13T18:39:51.949Z
Engine\Content\Slate\Common\Window\WindowButton_Minimize_Normal.png	2017-04-13T18:39:51.950Z
Engine\Content\Slate\Common\Window\WindowButton_Minimize_Pressed.png	2017-04-13T18:39:51.951Z
Engine\Content\Slate\Common\Window\WindowButton_Restore_Hovered.png	2017-04-13T18:39:51.952Z
Engine\Content\Slate\Common\Window\WindowButton_Restore_Normal.png	2017-04-13T18:39:51.953Z
Engine\Content\Slate\Common\Window\WindowButton_Restore_Pressed.png	2017-04-13T18:39:51.954Z
Engine\Content\Slate\Common\Window\WindowOutline.png	2017-04-13T18:39:51.956Z
Engine\Content\Slate\Common\Window\WindowTitle.png	2017-04-13T18:39:51.957Z
Engine\Content\Slate\Common\Window\WindowTitle_Flashing.png	2017-04-13T18:39:51.957Z
Engine\Content\Slate\Common\Window\WindowTitle_Inactive.png	2017-04-13T18:39:51.958Z
Engine\Content\Slate\CrashTracker\MouseCursor.png	2017-04-13T18:39:51.960Z
Engine\Content\Slate\CrashTracker\Record.png	2017-04-13T18:39:51.961Z
Engine\Content\Slate\Docking\AppTabContentArea.png	2017-04-13T18:39:51.967Z
Engine\Content\Slate\Docking\AppTabWellSeparator.png	2017-04-13T18:39:51.968Z
Engine\Content\Slate\Docking\AppTab_Active.png	2017-04-13T18:39:51.962Z
Engine\Content\Slate\Docking\AppTab_ColorOverlay.png	2017-04-13T18:39:51.963Z
Engine\Content\Slate\Docking\AppTab_Foreground.png	2017-04-13T18:39:51.964Z
Engine\Content\Slate\Docking\AppTab_Hovered.png	2017-04-13T18:39:51.965Z
Engine\Content\Slate\Docking\AppTab_Inactive.png	2017-04-13T18:39:51.966Z
Engine\Content\Slate\Docking\CloseApp_Hovered.png	2017-04-13T18:39:51.969Z
Engine\Content\Slate\Docking\CloseApp_Normal.png	2017-04-13T18:39:51.970Z
Engine\Content\Slate\Docking\CloseApp_Pressed.png	2017-04-13T18:39:51.971Z
Engine\Content\Slate\Docking\DockingIndicator_Center.png	2017-04-13T18:39:51.972Z
Engine\Content\Slate\Docking\OuterDockingIndicator.png	2017-04-13T18:39:51.973Z
Engine\Content\Slate\Docking\ShowTabwellButton_Hovered.png	2017-04-13T18:39:51.974Z
Engine\Content\Slate\Docking\ShowTabwellButton_Normal.png	2017-04-13T18:39:51.975Z
Engine\Content\Slate\Docking\ShowTabwellButton_Pressed.png	2017-04-13T18:39:51.976Z
Engine\Content\Slate\Docking\TabContentArea.png	2017-04-13T18:39:51.983Z
Engine\Content\Slate\Docking\TabWellSeparator.png	2017-04-13T18:39:51.984Z
Engine\Content\Slate\Docking\Tab_Active.png	2017-04-13T18:39:51.977Z
Engine\Content\Slate\Docking\Tab_ColorOverlay.png	2017-04-13T18:39:51.978Z
Engine\Content\Slate\Docking\Tab_Foreground.png	2017-04-13T18:39:51.979Z
Engine\Content\Slate\Docking\Tab_Hovered.png	2017-04-13T18:39:51.981Z
Engine\Content\Slate\Docking\Tab_Inactive.png	2017-04-13T18:39:51.982Z
Engine\Content\Slate\Fonts\DroidSans.tps	2017-04-13T18:39:51.991Z
Engine\Content\Slate\Fonts\DroidSansFallback.ttf	2017-04-13T18:39:52.010Z
Engine\Content\Slate\Fonts\DroidSansMono.ttf	2017-04-13T18:39:52.016Z
Engine\Content\Slate\Fonts\NanumGothic.tps	2017-04-13T18:39:52.024Z
Engine\Content\Slate\Fonts\NanumGothic.ttf	2017-04-13T18:39:52.045Z
Engine\Content\Slate\Fonts\Noto.tps	2017-04-13T18:39:52.051Z
Engine\Content\Slate\Fonts\NotoNaskhArabicUI-Regular.ttf	2017-04-13T18:39:52.057Z
Engine\Content\Slate\Fonts\Roboto-Bold.ttf	2017-04-13T18:39:52.063Z
Engine\Content\Slate\Fonts\Roboto-Light.ttf	2017-04-13T18:39:52.068Z
Engine\Content\Slate\Fonts\Roboto-Regular.ttf	2017-04-13T18:39:52.073Z
Engine\Content\Slate\Fonts\Roboto.tps	2017-04-13T18:39:52.079Z
Engine\Content\Slate\Icons\BackIcon.png	2017-04-13T18:39:52.080Z
Engine\Content\Slate\Icons\Cross_12x.png	2017-04-13T18:39:52.082Z
Engine\Content\Slate\Icons\cursor_cardinal_cross.png	2017-04-13T18:39:52.082Z
Engine\Content\Slate\Icons\cursor_grab.png	2017-04-13T18:39:52.083Z
Engine\Content\Slate\Icons\DefaultAppIcon.png	2017-04-13T18:39:52.084Z
Engine\Content\Slate\Icons\denied_16x.png	2017-04-13T18:39:52.086Z
Engine\Content\Slate\Icons\ellipsis_12x.png	2017-04-13T18:39:52.092Z
Engine\Content\Slate\Icons\Empty_14x.png	2017-04-13T18:39:52.093Z
Engine\Content\Slate\Icons\eyedropper_16px.png	2017-04-13T18:39:52.094Z
Engine\Content\Slate\Icons\icon_Downloads_16x.png	2017-04-13T18:39:52.095Z
Engine\Content\Slate\Icons\icon_error_16x.png	2017-04-13T18:39:52.096Z
Engine\Content\Slate\Icons\icon_generic_toolbar.png	2017-04-13T18:39:52.097Z
Engine\Content\Slate\Icons\icon_help_16x.png	2017-04-13T18:39:52.098Z
Engine\Content\Slate\Icons\icon_info_16x.png	2017-04-13T18:39:52.099Z
Engine\Content\Slate\Icons\icon_redo_16px.png	2017-04-13T18:39:52.100Z
Engine\Content\Slate\Icons\icon_tab_toolbar_16px.png	2017-04-13T18:39:52.101Z
Engine\Content\Slate\Icons\icon_tab_WidgetReflector_16x.png	2017-04-13T18:39:52.102Z
Engine\Content\Slate\Icons\icon_tab_WidgetReflector_40x.png	2017-04-13T18:39:52.103Z
Engine\Content\Slate\Icons\icon_undo_16px.png	2017-04-13T18:39:52.105Z
Engine\Content\Slate\Icons\icon_warning_16x.png	2017-04-13T18:39:52.105Z
Engine\Content\Slate\Icons\NextIcon.png	2017-04-13T18:39:52.106Z
Engine\Content\Slate\Icons\notificationlist_fail.png	2017-04-13T18:39:52.107Z
Engine\Content\Slate\Icons\notificationlist_success.png	2017-04-13T18:39:52.108Z
Engine\Content\Slate\Icons\PlusSymbol_12x.png	2017-04-13T18:39:52.109Z
Engine\Content\Slate\Icons\toolbar_expand_16x.png	2017-04-13T18:39:52.110Z
Engine\Content\Slate\Icons\TrashCan.png	2017-04-13T18:39:52.111Z
Engine\Content\Slate\Icons\TrashCan_Small.png	2017-04-13T18:39:52.112Z
Engine\Content\Slate\Icons\Edit\icon_Edit_Copy_16x.png	2017-04-13T18:39:52.087Z
Engine\Content\Slate\Icons\Edit\icon_Edit_Cut_16x.png	2017-04-13T18:39:52.088Z
Engine\Content\Slate\Icons\Edit\icon_Edit_Delete_16x.png	2017-04-13T18:39:52.089Z
Engine\Content\Slate\Icons\Edit\icon_Edit_Duplicate_16x.png	2017-04-13T18:39:52.090Z
Engine\Content\Slate\Icons\Edit\icon_Edit_Paste_16x.png	2017-04-13T18:39:52.091Z
Engine\Content\Slate\MessageLog\Log_Error.png	2017-04-13T18:39:52.113Z
Engine\Content\Slate\MessageLog\Log_Note.png	2017-04-13T18:39:52.114Z
Engine\Content\Slate\MessageLog\Log_Warning.png	2017-04-13T18:39:52.115Z
Engine\Content\Slate\Old\Border.PNG	2017-04-13T18:39:52.116Z
Engine\Content\Slate\Old\Button.png	2017-04-13T18:39:52.117Z
Engine\Content\Slate\Old\DashedBorder.png	2017-04-13T18:39:52.118Z
Engine\Content\Slate\Old\HyperlinkDotted.png	2017-04-13T18:39:52.119Z
Engine\Content\Slate\Old\HyperlinkUnderline.png	2017-04-13T18:39:52.120Z
Engine\Content\Slate\Old\Menu_Background.png	2017-04-13T18:39:52.121Z
Engine\Content\Slate\Old\Menu_Background_Inverted_Border_Bold.png	2017-04-13T18:39:52.122Z
Engine\Content\Slate\Old\Notification_Border_Flash.png	2017-04-13T18:39:52.123Z
Engine\Content\Slate\Old\ToolBar_Background.png	2017-04-13T18:39:52.124Z
Engine\Content\Slate\Old\ToolTip_Background.png	2017-04-13T18:39:52.124Z
Engine\Content\Slate\Old\ToolTip_BrightBackground.png	2017-04-13T18:39:52.125Z
Engine\Content\Slate\Old\White.png	2017-04-13T18:39:52.126Z
Engine\Content\Slate\Testing\BrushWireframe.png	2017-04-13T18:39:52.127Z
Engine\Content\Slate\Testing\DefaultPawn_16px.png	2017-04-13T18:39:52.128Z
Engine\Content\Slate\Testing\FlatColorSquare.png	2017-04-13T18:39:52.130Z
Engine\Content\Slate\Testing\GammaReference.png	2017-04-13T18:39:52.150Z
Engine\Content\Slate\Testing\Hyperlink.png	2017-04-13T18:39:52.151Z
Engine\Content\Slate\Testing\Lit.png	2017-04-13T18:39:52.152Z
Engine\Content\Slate\Testing\NewLevelBlank.png	2017-04-13T18:39:52.153Z
Engine\Content\Slate\Testing\TestRotation.png	2017-04-13T18:39:52.154Z
Engine\Content\Slate\Testing\UE4Icon.png	2017-04-13T18:39:52.155Z
Engine\Content\Slate\Testing\Unlit.png	2017-04-13T18:39:52.155Z
Engine\Content\Slate\Testing\Wireframe.png	2017-04-13T18:39:52.156Z
Engine\Content\Slate\Testing\Fonts\Roboto-BlackItalic.ttf	2017-04-13T18:39:52.135Z
Engine\Content\Slate\Testing\Fonts\Roboto-BoldItalic.ttf	2017-04-13T18:39:52.140Z
Engine\Content\Slate\Testing\Fonts\Roboto-Italic.ttf	2017-04-13T18:39:52.145Z
Engine\Content\Slate\Testing\Fonts\Roboto.tps	2017-04-13T18:39:52.149Z
Engine\Content\Slate\Tutorials\TutorialBorder.png	2017-04-13T18:39:52.157Z
Engine\Content\Slate\Tutorials\TutorialShadow.png	2017-04-13T18:39:52.158Z
Engine\Shaders\StandaloneRenderer\D3D\GammaCorrectionCommon.hlsl	2017-04-13T18:44:53.982Z
Engine\Shaders\StandaloneRenderer\D3D\SlateDefaultVertexShader.hlsl	2017-04-13T18:44:53.986Z
Engine\Shaders\StandaloneRenderer\D3D\SlateElementPixelShader.hlsl	2017-04-13T18:44:53.991Z
Engine\Shaders\StandaloneRenderer\OpenGL\SlateElementPixelShader.glsl	2017-04-13T18:44:53.995Z
Engine\Shaders\StandaloneRenderer\OpenGL\SlateVertexShader.glsl	2017-04-13T18:44:53.999Z
Engine\Shaders\StandaloneRenderer\OpenGL\SplashFragmentShader.glsl	2017-04-13T18:44:54.003Z
Engine\Shaders\StandaloneRenderer\OpenGL\SplashVertexShader.glsl	2017-04-13T18:44:54.011Z
Engine\Content\Internationalization\icudt53l\cnvalias.icu	2017-04-13T18:39:34.056Z
Engine\Content\Internationalization\icudt53l\confusables.cfu	2017-04-13T18:39:34.083Z
Engine\Content\Internationalization\icudt53l\en.res	2017-04-13T18:39:34.320Z
Engine\Content\Internationalization\icudt53l\en_001.res	2017-04-13T18:39:34.322Z
Engine\Content\Internationalization\icudt53l\en_150.res	2017-04-13T18:39:34.322Z
Engine\Content\Internationalization\icudt53l\en_AG.res	2017-04-13T18:39:34.326Z
Engine\Content\Internationalization\icudt53l\en_AI.res	2017-04-13T18:39:34.327Z
Engine\Content\Internationalization\icudt53l\en_AS.res	2017-04-13T18:39:34.328Z
Engine\Content\Internationalization\icudt53l\en_AU.res	2017-04-13T18:39:34.333Z
Engine\Content\Internationalization\icudt53l\en_BB.res	2017-04-13T18:39:34.334Z
Engine\Content\Internationalization\icudt53l\en_BE.res	2017-04-13T18:39:34.334Z
Engine\Content\Internationalization\icudt53l\en_BM.res	2017-04-13T18:39:34.335Z
Engine\Content\Internationalization\icudt53l\en_BS.res	2017-04-13T18:39:34.339Z
Engine\Content\Internationalization\icudt53l\en_BW.res	2017-04-13T18:39:34.340Z
Engine\Content\Internationalization\icudt53l\en_BZ.res	2017-04-13T18:39:34.341Z
Engine\Content\Internationalization\icudt53l\en_CA.res	2017-04-13T18:39:34.346Z
Engine\Content\Internationalization\icudt53l\en_CC.res	2017-04-13T18:39:34.347Z
Engine\Content\Internationalization\icudt53l\en_CK.res	2017-04-13T18:39:34.348Z
Engine\Content\Internationalization\icudt53l\en_CM.res	2017-04-13T18:39:34.348Z
Engine\Content\Internationalization\icudt53l\en_CX.res	2017-04-13T18:39:34.349Z
Engine\Content\Internationalization\icudt53l\en_DG.res	2017-04-13T18:39:34.352Z
Engine\Content\Internationalization\icudt53l\en_DM.res	2017-04-13T18:39:34.353Z
Engine\Content\Internationalization\icudt53l\en_ER.res	2017-04-13T18:39:34.353Z
Engine\Content\Internationalization\icudt53l\en_FJ.res	2017-04-13T18:39:34.355Z
Engine\Content\Internationalization\icudt53l\en_FK.res	2017-04-13T18:39:34.359Z
Engine\Content\Internationalization\icudt53l\en_FM.res	2017-04-13T18:39:34.360Z
Engine\Content\Internationalization\icudt53l\en_GB.res	2017-04-13T18:39:34.360Z
Engine\Content\Internationalization\icudt53l\en_GD.res	2017-04-13T18:39:34.361Z
Engine\Content\Internationalization\icudt53l\en_GG.res	2017-04-13T18:39:34.365Z
Engine\Content\Internationalization\icudt53l\en_GH.res	2017-04-13T18:39:34.367Z
Engine\Content\Internationalization\icudt53l\en_GI.res	2017-04-13T18:39:34.367Z
Engine\Content\Internationalization\icudt53l\en_GM.res	2017-04-13T18:39:34.368Z
Engine\Content\Internationalization\icudt53l\en_GU.res	2017-04-13T18:39:34.369Z
Engine\Content\Internationalization\icudt53l\en_GY.res	2017-04-13T18:39:34.370Z
Engine\Content\Internationalization\icudt53l\en_HK.res	2017-04-13T18:39:34.377Z
Engine\Content\Internationalization\icudt53l\en_IE.res	2017-04-13T18:39:34.378Z
Engine\Content\Internationalization\icudt53l\en_IM.res	2017-04-13T18:39:34.379Z
Engine\Content\Internationalization\icudt53l\en_IN.res	2017-04-13T18:39:34.380Z
Engine\Content\Internationalization\icudt53l\en_IO.res	2017-04-13T18:39:34.380Z
Engine\Content\Internationalization\icudt53l\en_JE.res	2017-04-13T18:39:34.381Z
Engine\Content\Internationalization\icudt53l\en_JM.res	2017-04-13T18:39:34.383Z
Engine\Content\Internationalization\icudt53l\en_KE.res	2017-04-13T18:39:34.384Z
Engine\Content\Internationalization\icudt53l\en_KI.res	2017-04-13T18:39:34.384Z
Engine\Content\Internationalization\icudt53l\en_KN.res	2017-04-13T18:39:34.385Z
Engine\Content\Internationalization\icudt53l\en_KY.res	2017-04-13T18:39:34.386Z
Engine\Content\Internationalization\icudt53l\en_LC.res	2017-04-13T18:39:34.387Z
Engine\Content\Internationalization\icudt53l\en_LR.res	2017-04-13T18:39:34.388Z
Engine\Content\Internationalization\icudt53l\en_LS.res	2017-04-13T18:39:34.389Z
Engine\Content\Internationalization\icudt53l\en_MG.res	2017-04-13T18:39:34.390Z
Engine\Content\Internationalization\icudt53l\en_MH.res	2017-04-13T18:39:34.391Z
Engine\Content\Internationalization\icudt53l\en_MO.res	2017-04-13T18:39:34.392Z
Engine\Content\Internationalization\icudt53l\en_MP.res	2017-04-13T18:39:34.393Z
Engine\Content\Internationalization\icudt53l\en_MS.res	2017-04-13T18:39:34.394Z
Engine\Content\Internationalization\icudt53l\en_MT.res	2017-04-13T18:39:34.398Z
Engine\Content\Internationalization\icudt53l\en_MU.res	2017-04-13T18:39:34.399Z
Engine\Content\Internationalization\icudt53l\en_MW.res	2017-04-13T18:39:34.400Z
Engine\Content\Internationalization\icudt53l\en_NA.res	2017-04-13T18:39:34.401Z
Engine\Content\Internationalization\icudt53l\en_NF.res	2017-04-13T18:39:34.402Z
Engine\Content\Internationalization\icudt53l\en_NG.res	2017-04-13T18:39:34.403Z
Engine\Content\Internationalization\icudt53l\en_NH.res	2017-04-13T18:39:34.404Z
Engine\Content\Internationalization\icudt53l\en_NR.res	2017-04-13T18:39:34.405Z
Engine\Content\Internationalization\icudt53l\en_NU.res	2017-04-13T18:39:34.406Z
Engine\Content\Internationalization\icudt53l\en_NZ.res	2017-04-13T18:39:34.410Z
Engine\Content\Internationalization\icudt53l\en_PG.res	2017-04-13T18:39:34.411Z
Engine\Content\Internationalization\icudt53l\en_PH.res	2017-04-13T18:39:34.413Z
Engine\Content\Internationalization\icudt53l\en_PK.res	2017-04-13T18:39:34.417Z
Engine\Content\Internationalization\icudt53l\en_PN.res	2017-04-13T18:39:34.418Z
Engine\Content\Internationalization\icudt53l\en_PR.res	2017-04-13T18:39:34.419Z
Engine\Content\Internationalization\icudt53l\en_PW.res	2017-04-13T18:39:34.420Z
Engine\Content\Internationalization\icudt53l\en_RH.res	2017-04-13T18:39:34.421Z
Engine\Content\Internationalization\icudt53l\en_RW.res	2017-04-13T18:39:34.422Z
Engine\Content\Internationalization\icudt53l\en_SB.res	2017-04-13T18:39:34.423Z
Engine\Content\Internationalization\icudt53l\en_SC.res	2017-04-13T18:39:34.424Z
Engine\Content\Internationalization\icudt53l\en_SD.res	2017-04-13T18:39:34.425Z
Engine\Content\Internationalization\icudt53l\en_SG.res	2017-04-13T18:39:34.426Z
Engine\Content\Internationalization\icudt53l\en_SH.res	2017-04-13T18:39:34.427Z
Engine\Content\Internationalization\icudt53l\en_SL.res	2017-04-13T18:39:34.428Z
Engine\Content\Internationalization\icudt53l\en_SS.res	2017-04-13T18:39:34.428Z
Engine\Content\Internationalization\icudt53l\en_SX.res	2017-04-13T18:39:34.429Z
Engine\Content\Internationalization\icudt53l\en_SZ.res	2017-04-13T18:39:34.430Z
Engine\Content\Internationalization\icudt53l\en_TC.res	2017-04-13T18:39:34.431Z
Engine\Content\Internationalization\icudt53l\en_TK.res	2017-04-13T18:39:34.433Z
Engine\Content\Internationalization\icudt53l\en_TO.res	2017-04-13T18:39:34.434Z
Engine\Content\Internationalization\icudt53l\en_TT.res	2017-04-13T18:39:34.434Z
Engine\Content\Internationalization\icudt53l\en_TV.res	2017-04-13T18:39:34.435Z
Engine\Content\Internationalization\icudt53l\en_TZ.res	2017-04-13T18:39:34.436Z
Engine\Content\Internationalization\icudt53l\en_UG.res	2017-04-13T18:39:34.437Z
Engine\Content\Internationalization\icudt53l\en_UM.res	2017-04-13T18:39:34.438Z
Engine\Content\Internationalization\icudt53l\en_US.res	2017-04-13T18:39:34.439Z
Engine\Content\Internationalization\icudt53l\en_US_POSIX.res	2017-04-13T18:39:34.440Z
Engine\Content\Internationalization\icudt53l\en_VC.res	2017-04-13T18:39:34.441Z
Engine\Content\Internationalization\icudt53l\en_VG.res	2017-04-13T18:39:34.442Z
Engine\Content\Internationalization\icudt53l\en_VI.res	2017-04-13T18:39:34.443Z
Engine\Content\Internationalization\icudt53l\en_VU.res	2017-04-13T18:39:34.444Z
Engine\Content\Internationalization\icudt53l\en_WS.res	2017-04-13T18:39:34.445Z
Engine\Content\Internationalization\icudt53l\en_ZA.res	2017-04-13T18:39:34.446Z
Engine\Content\Internationalization\icudt53l\en_ZM.res	2017-04-13T18:39:34.447Z
Engine\Content\Internationalization\icudt53l\en_ZW.res	2017-04-13T18:39:34.452Z
Engine\Content\Internationalization\icudt53l\ibm-1047_P100-1995.cnv	2017-04-13T18:39:34.457Z
Engine\Content\Internationalization\icudt53l\ibm-37_P100-1995.cnv	2017-04-13T18:39:34.458Z
Engine\Content\Internationalization\icudt53l\keyTypeData.res	2017-04-13T18:39:34.459Z
Engine\Content\Internationalization\icudt53l\leet.res	2017-04-13T18:39:34.582Z
Engine\Content\Internationalization\icudt53l\metaZones.res	2017-04-13T18:39:34.588Z
Engine\Content\Internationalization\icudt53l\nfc.nrm	2017-04-13T18:39:34.593Z
Engine\Content\Internationalization\icudt53l\nfkc.nrm	2017-04-13T18:39:34.598Z
Engine\Content\Internationalization\icudt53l\nfkc_cf.nrm	2017-04-13T18:39:34.602Z
Engine\Content\Internationalization\icudt53l\numberingSystems.res	2017-04-13T18:39:34.607Z
Engine\Content\Internationalization\icudt53l\plurals.res	2017-04-13T18:39:34.612Z
Engine\Content\Internationalization\icudt53l\pool.res	2017-04-13T18:39:34.613Z
Engine\Content\Internationalization\icudt53l\res_index.res	2017-04-13T18:39:34.754Z
Engine\Content\Internationalization\icudt53l\root.res	2017-04-13T18:39:34.761Z
Engine\Content\Internationalization\icudt53l\timezoneTypes.res	2017-04-13T18:39:34.766Z
Engine\Content\Internationalization\icudt53l\unames.icu	2017-04-13T18:39:34.773Z
Engine\Content\Internationalization\icudt53l\uts46.nrm	2017-04-13T18:39:34.778Z
Engine\Content\Internationalization\icudt53l\windowsZones.res	2017-04-13T18:39:34.783Z
Engine\Content\Internationalization\icudt53l\zoneinfo64.res	2017-04-13T18:39:34.912Z
Engine\Content\Internationalization\icudt53l\brkitr\char.brk	2017-04-13T18:39:34.003Z
Engine\Content\Internationalization\icudt53l\brkitr\en.res	2017-04-13T18:39:34.005Z
Engine\Content\Internationalization\icudt53l\brkitr\en_US.res	2017-04-13T18:39:34.006Z
Engine\Content\Internationalization\icudt53l\brkitr\en_US_POSIX.res	2017-04-13T18:39:34.007Z
Engine\Content\Internationalization\icudt53l\brkitr\leet.res	2017-04-13T18:39:34.013Z
Engine\Content\Internationalization\icudt53l\brkitr\line.brk	2017-04-13T18:39:34.020Z
Engine\Content\Internationalization\icudt53l\brkitr\res_index.res	2017-04-13T18:39:34.024Z
Engine\Content\Internationalization\icudt53l\brkitr\root.res	2017-04-13T18:39:34.029Z
Engine\Content\Internationalization\icudt53l\brkitr\sent.brk	2017-04-13T18:39:34.035Z
Engine\Content\Internationalization\icudt53l\brkitr\title.brk	2017-04-13T18:39:34.040Z
Engine\Content\Internationalization\icudt53l\brkitr\word.brk	2017-04-13T18:39:34.045Z
Engine\Content\Internationalization\icudt53l\brkitr\word_POSIX.brk	2017-04-13T18:39:34.051Z
Engine\Content\Internationalization\icudt53l\coll\en.res	2017-04-13T18:39:34.057Z
Engine\Content\Internationalization\icudt53l\coll\en_US.res	2017-04-13T18:39:34.058Z
Engine\Content\Internationalization\icudt53l\coll\en_US_POSIX.res	2017-04-13T18:39:34.063Z
Engine\Content\Internationalization\icudt53l\coll\leet.res	2017-04-13T18:39:34.067Z
Engine\Content\Internationalization\icudt53l\coll\res_index.res	2017-04-13T18:39:34.067Z
Engine\Content\Internationalization\icudt53l\coll\root.res	2017-04-13T18:39:34.072Z
Engine\Content\Internationalization\icudt53l\coll\ucadata.icu	2017-04-13T18:39:34.077Z
Engine\Content\Internationalization\icudt53l\curr\en.res	2017-04-13T18:39:34.089Z
Engine\Content\Internationalization\icudt53l\curr\en_001.res	2017-04-13T18:39:34.093Z
Engine\Content\Internationalization\icudt53l\curr\en_150.res	2017-04-13T18:39:34.094Z
Engine\Content\Internationalization\icudt53l\curr\en_AG.res	2017-04-13T18:39:34.095Z
Engine\Content\Internationalization\icudt53l\curr\en_AI.res	2017-04-13T18:39:34.096Z
Engine\Content\Internationalization\icudt53l\curr\en_AU.res	2017-04-13T18:39:34.097Z
Engine\Content\Internationalization\icudt53l\curr\en_BB.res	2017-04-13T18:39:34.102Z
Engine\Content\Internationalization\icudt53l\curr\en_BE.res	2017-04-13T18:39:34.104Z
Engine\Content\Internationalization\icudt53l\curr\en_BM.res	2017-04-13T18:39:34.105Z
Engine\Content\Internationalization\icudt53l\curr\en_BS.res	2017-04-13T18:39:34.107Z
Engine\Content\Internationalization\icudt53l\curr\en_BW.res	2017-04-13T18:39:34.111Z
Engine\Content\Internationalization\icudt53l\curr\en_BZ.res	2017-04-13T18:39:34.113Z
Engine\Content\Internationalization\icudt53l\curr\en_CA.res	2017-04-13T18:39:34.114Z
Engine\Content\Internationalization\icudt53l\curr\en_CC.res	2017-04-13T18:39:34.119Z
Engine\Content\Internationalization\icudt53l\curr\en_CK.res	2017-04-13T18:39:34.120Z
Engine\Content\Internationalization\icudt53l\curr\en_CM.res	2017-04-13T18:39:34.122Z
Engine\Content\Internationalization\icudt53l\curr\en_CX.res	2017-04-13T18:39:34.123Z
Engine\Content\Internationalization\icudt53l\curr\en_DG.res	2017-04-13T18:39:34.124Z
Engine\Content\Internationalization\icudt53l\curr\en_DM.res	2017-04-13T18:39:34.126Z
Engine\Content\Internationalization\icudt53l\curr\en_ER.res	2017-04-13T18:39:34.127Z
Engine\Content\Internationalization\icudt53l\curr\en_FJ.res	2017-04-13T18:39:34.134Z
Engine\Content\Internationalization\icudt53l\curr\en_FK.res	2017-04-13T18:39:34.136Z
Engine\Content\Internationalization\icudt53l\curr\en_FM.res	2017-04-13T18:39:34.138Z
Engine\Content\Internationalization\icudt53l\curr\en_GB.res	2017-04-13T18:39:34.139Z
Engine\Content\Internationalization\icudt53l\curr\en_GD.res	2017-04-13T18:39:34.141Z
Engine\Content\Internationalization\icudt53l\curr\en_GG.res	2017-04-13T18:39:34.142Z
Engine\Content\Internationalization\icudt53l\curr\en_GH.res	2017-04-13T18:39:34.143Z
Engine\Content\Internationalization\icudt53l\curr\en_GI.res	2017-04-13T18:39:34.150Z
Engine\Content\Internationalization\icudt53l\curr\en_GM.res	2017-04-13T18:39:34.161Z
Engine\Content\Internationalization\icudt53l\curr\en_GY.res	2017-04-13T18:39:34.168Z
Engine\Content\Internationalization\icudt53l\curr\en_HK.res	2017-04-13T18:39:34.169Z
Engine\Content\Internationalization\icudt53l\curr\en_IE.res	2017-04-13T18:39:34.172Z
Engine\Content\Internationalization\icudt53l\curr\en_IM.res	2017-04-13T18:39:34.173Z
Engine\Content\Internationalization\icudt53l\curr\en_IN.res	2017-04-13T18:39:34.175Z
Engine\Content\Internationalization\icudt53l\curr\en_IO.res	2017-04-13T18:39:34.177Z
Engine\Content\Internationalization\icudt53l\curr\en_JE.res	2017-04-13T18:39:34.184Z
Engine\Content\Internationalization\icudt53l\curr\en_JM.res	2017-04-13T18:39:34.187Z
Engine\Content\Internationalization\icudt53l\curr\en_KE.res	2017-04-13T18:39:34.193Z
Engine\Content\Internationalization\icudt53l\curr\en_KI.res	2017-04-13T18:39:34.198Z
Engine\Content\Internationalization\icudt53l\curr\en_KN.res	2017-04-13T18:39:34.200Z
Engine\Content\Internationalization\icudt53l\curr\en_KY.res	2017-04-13T18:39:34.201Z
Engine\Content\Internationalization\icudt53l\curr\en_LC.res	2017-04-13T18:39:34.202Z
Engine\Content\Internationalization\icudt53l\curr\en_LR.res	2017-04-13T18:39:34.203Z
Engine\Content\Internationalization\icudt53l\curr\en_LS.res	2017-04-13T18:39:34.204Z
Engine\Content\Internationalization\icudt53l\curr\en_MG.res	2017-04-13T18:39:34.205Z
Engine\Content\Internationalization\icudt53l\curr\en_MO.res	2017-04-13T18:39:34.207Z
Engine\Content\Internationalization\icudt53l\curr\en_MS.res	2017-04-13T18:39:34.208Z
Engine\Content\Internationalization\icudt53l\curr\en_MT.res	2017-04-13T18:39:34.209Z
Engine\Content\Internationalization\icudt53l\curr\en_MU.res	2017-04-13T18:39:34.213Z
Engine\Content\Internationalization\icudt53l\curr\en_MW.res	2017-04-13T18:39:34.218Z
Engine\Content\Internationalization\icudt53l\curr\en_NA.res	2017-04-13T18:39:34.219Z
Engine\Content\Internationalization\icudt53l\curr\en_NF.res	2017-04-13T18:39:34.220Z
Engine\Content\Internationalization\icudt53l\curr\en_NG.res	2017-04-13T18:39:34.224Z
Engine\Content\Internationalization\icudt53l\curr\en_NH.res	2017-04-13T18:39:34.228Z
Engine\Content\Internationalization\icudt53l\curr\en_NR.res	2017-04-13T18:39:34.229Z
Engine\Content\Internationalization\icudt53l\curr\en_NU.res	2017-04-13T18:39:34.230Z
Engine\Content\Internationalization\icudt53l\curr\en_NZ.res	2017-04-13T18:39:34.231Z
Engine\Content\Internationalization\icudt53l\curr\en_PG.res	2017-04-13T18:39:34.232Z
Engine\Content\Internationalization\icudt53l\curr\en_PH.res	2017-04-13T18:39:34.236Z
Engine\Content\Internationalization\icudt53l\curr\en_PK.res	2017-04-13T18:39:34.241Z
Engine\Content\Internationalization\icudt53l\curr\en_PN.res	2017-04-13T18:39:34.242Z
Engine\Content\Internationalization\icudt53l\curr\en_PW.res	2017-04-13T18:39:34.243Z
Engine\Content\Internationalization\icudt53l\curr\en_RH.res	2017-04-13T18:39:34.248Z
Engine\Content\Internationalization\icudt53l\curr\en_RW.res	2017-04-13T18:39:34.252Z
Engine\Content\Internationalization\icudt53l\curr\en_SB.res	2017-04-13T18:39:34.255Z
Engine\Content\Internationalization\icudt53l\curr\en_SC.res	2017-04-13T18:39:34.256Z
Engine\Content\Internationalization\icudt53l\curr\en_SD.res	2017-04-13T18:39:34.257Z
Engine\Content\Internationalization\icudt53l\curr\en_SG.res	2017-04-13T18:39:34.258Z
Engine\Content\Internationalization\icudt53l\curr\en_SH.res	2017-04-13T18:39:34.262Z
Engine\Content\Internationalization\icudt53l\curr\en_SL.res	2017-04-13T18:39:34.263Z
Engine\Content\Internationalization\icudt53l\curr\en_SS.res	2017-04-13T18:39:34.264Z
Engine\Content\Internationalization\icudt53l\curr\en_SX.res	2017-04-13T18:39:34.265Z
Engine\Content\Internationalization\icudt53l\curr\en_SZ.res	2017-04-13T18:39:34.268Z
Engine\Content\Internationalization\icudt53l\curr\en_TC.res	2017-04-13T18:39:34.269Z
Engine\Content\Internationalization\icudt53l\curr\en_TK.res	2017-04-13T18:39:34.270Z
Engine\Content\Internationalization\icudt53l\curr\en_TO.res	2017-04-13T18:39:34.271Z
Engine\Content\Internationalization\icudt53l\curr\en_TT.res	2017-04-13T18:39:34.272Z
Engine\Content\Internationalization\icudt53l\curr\en_TV.res	2017-04-13T18:39:34.273Z
Engine\Content\Internationalization\icudt53l\curr\en_TZ.res	2017-04-13T18:39:34.277Z
Engine\Content\Internationalization\icudt53l\curr\en_UG.res	2017-04-13T18:39:34.281Z
Engine\Content\Internationalization\icudt53l\curr\en_VC.res	2017-04-13T18:39:34.282Z
Engine\Content\Internationalization\icudt53l\curr\en_VG.res	2017-04-13T18:39:34.283Z
Engine\Content\Internationalization\icudt53l\curr\en_VU.res	2017-04-13T18:39:34.288Z
Engine\Content\Internationalization\icudt53l\curr\en_WS.res	2017-04-13T18:39:34.289Z
Engine\Content\Internationalization\icudt53l\curr\en_ZA.res	2017-04-13T18:39:34.290Z
Engine\Content\Internationalization\icudt53l\curr\en_ZM.res	2017-04-13T18:39:34.291Z
Engine\Content\Internationalization\icudt53l\curr\en_ZW.res	2017-04-13T18:39:34.292Z
Engine\Content\Internationalization\icudt53l\curr\leet.res	2017-04-13T18:39:34.298Z
Engine\Content\Internationalization\icudt53l\curr\pool.res	2017-04-13T18:39:34.303Z
Engine\Content\Internationalization\icudt53l\curr\res_index.res	2017-04-13T18:39:34.307Z
Engine\Content\Internationalization\icudt53l\curr\root.res	2017-04-13T18:39:34.308Z
Engine\Content\Internationalization\icudt53l\curr\supplementalData.res	2017-04-13T18:39:34.315Z
Engine\Content\Internationalization\icudt53l\lang\en.res	2017-04-13T18:39:34.466Z
Engine\Content\Internationalization\icudt53l\lang\en_150.res	2017-04-13T18:39:34.467Z
Engine\Content\Internationalization\icudt53l\lang\en_AG.res	2017-04-13T18:39:34.471Z
Engine\Content\Internationalization\icudt53l\lang\en_AI.res	2017-04-13T18:39:34.473Z
Engine\Content\Internationalization\icudt53l\lang\en_AU.res	2017-04-13T18:39:34.473Z
Engine\Content\Internationalization\icudt53l\lang\en_BB.res	2017-04-13T18:39:34.475Z
Engine\Content\Internationalization\icudt53l\lang\en_BE.res	2017-04-13T18:39:34.476Z
Engine\Content\Internationalization\icudt53l\lang\en_BM.res	2017-04-13T18:39:34.477Z
Engine\Content\Internationalization\icudt53l\lang\en_BS.res	2017-04-13T18:39:34.478Z
Engine\Content\Internationalization\icudt53l\lang\en_BW.res	2017-04-13T18:39:34.479Z
Engine\Content\Internationalization\icudt53l\lang\en_BZ.res	2017-04-13T18:39:34.480Z
Engine\Content\Internationalization\icudt53l\lang\en_CC.res	2017-04-13T18:39:34.481Z
Engine\Content\Internationalization\icudt53l\lang\en_CK.res	2017-04-13T18:39:34.483Z
Engine\Content\Internationalization\icudt53l\lang\en_CM.res	2017-04-13T18:39:34.484Z
Engine\Content\Internationalization\icudt53l\lang\en_CX.res	2017-04-13T18:39:34.485Z
Engine\Content\Internationalization\icudt53l\lang\en_DG.res	2017-04-13T18:39:34.486Z
Engine\Content\Internationalization\icudt53l\lang\en_DM.res	2017-04-13T18:39:34.487Z
Engine\Content\Internationalization\icudt53l\lang\en_ER.res	2017-04-13T18:39:34.488Z
Engine\Content\Internationalization\icudt53l\lang\en_FJ.res	2017-04-13T18:39:34.489Z
Engine\Content\Internationalization\icudt53l\lang\en_FK.res	2017-04-13T18:39:34.490Z
Engine\Content\Internationalization\icudt53l\lang\en_FM.res	2017-04-13T18:39:34.492Z
Engine\Content\Internationalization\icudt53l\lang\en_GB.res	2017-04-13T18:39:34.493Z
Engine\Content\Internationalization\icudt53l\lang\en_GD.res	2017-04-13T18:39:34.494Z
Engine\Content\Internationalization\icudt53l\lang\en_GG.res	2017-04-13T18:39:34.495Z
Engine\Content\Internationalization\icudt53l\lang\en_GH.res	2017-04-13T18:39:34.496Z
Engine\Content\Internationalization\icudt53l\lang\en_GI.res	2017-04-13T18:39:34.497Z
Engine\Content\Internationalization\icudt53l\lang\en_GM.res	2017-04-13T18:39:34.498Z
Engine\Content\Internationalization\icudt53l\lang\en_GY.res	2017-04-13T18:39:34.499Z
Engine\Content\Internationalization\icudt53l\lang\en_HK.res	2017-04-13T18:39:34.499Z
Engine\Content\Internationalization\icudt53l\lang\en_IE.res	2017-04-13T18:39:34.500Z
Engine\Content\Internationalization\icudt53l\lang\en_IM.res	2017-04-13T18:39:34.501Z
Engine\Content\Internationalization\icudt53l\lang\en_IN.res	2017-04-13T18:39:34.502Z
Engine\Content\Internationalization\icudt53l\lang\en_IO.res	2017-04-13T18:39:34.503Z
Engine\Content\Internationalization\icudt53l\lang\en_JE.res	2017-04-13T18:39:34.504Z
Engine\Content\Internationalization\icudt53l\lang\en_JM.res	2017-04-13T18:39:34.505Z
Engine\Content\Internationalization\icudt53l\lang\en_KE.res	2017-04-13T18:39:34.506Z
Engine\Content\Internationalization\icudt53l\lang\en_KI.res	2017-04-13T18:39:34.507Z
Engine\Content\Internationalization\icudt53l\lang\en_KN.res	2017-04-13T18:39:34.508Z
Engine\Content\Internationalization\icudt53l\lang\en_KY.res	2017-04-13T18:39:34.509Z
Engine\Content\Internationalization\icudt53l\lang\en_LC.res	2017-04-13T18:39:34.510Z
Engine\Content\Internationalization\icudt53l\lang\en_LR.res	2017-04-13T18:39:34.511Z
Engine\Content\Internationalization\icudt53l\lang\en_LS.res	2017-04-13T18:39:34.512Z
Engine\Content\Internationalization\icudt53l\lang\en_MG.res	2017-04-13T18:39:34.513Z
Engine\Content\Internationalization\icudt53l\lang\en_MO.res	2017-04-13T18:39:34.514Z
Engine\Content\Internationalization\icudt53l\lang\en_MS.res	2017-04-13T18:39:34.516Z
Engine\Content\Internationalization\icudt53l\lang\en_MT.res	2017-04-13T18:39:34.516Z
Engine\Content\Internationalization\icudt53l\lang\en_MU.res	2017-04-13T18:39:34.517Z
Engine\Content\Internationalization\icudt53l\lang\en_MW.res	2017-04-13T18:39:34.518Z
Engine\Content\Internationalization\icudt53l\lang\en_NA.res	2017-04-13T18:39:34.519Z
Engine\Content\Internationalization\icudt53l\lang\en_NF.res	2017-04-13T18:39:34.521Z
Engine\Content\Internationalization\icudt53l\lang\en_NG.res	2017-04-13T18:39:34.522Z
Engine\Content\Internationalization\icudt53l\lang\en_NH.res	2017-04-13T18:39:34.523Z
Engine\Content\Internationalization\icudt53l\lang\en_NR.res	2017-04-13T18:39:34.524Z
Engine\Content\Internationalization\icudt53l\lang\en_NU.res	2017-04-13T18:39:34.525Z
Engine\Content\Internationalization\icudt53l\lang\en_NZ.res	2017-04-13T18:39:34.526Z
Engine\Content\Internationalization\icudt53l\lang\en_PG.res	2017-04-13T18:39:34.527Z
Engine\Content\Internationalization\icudt53l\lang\en_PH.res	2017-04-13T18:39:34.528Z
Engine\Content\Internationalization\icudt53l\lang\en_PK.res	2017-04-13T18:39:34.530Z
Engine\Content\Internationalization\icudt53l\lang\en_PN.res	2017-04-13T18:39:34.531Z
Engine\Content\Internationalization\icudt53l\lang\en_PW.res	2017-04-13T18:39:34.532Z
Engine\Content\Internationalization\icudt53l\lang\en_RH.res	2017-04-13T18:39:34.533Z
Engine\Content\Internationalization\icudt53l\lang\en_RW.res	2017-04-13T18:39:34.534Z
Engine\Content\Internationalization\icudt53l\lang\en_SB.res	2017-04-13T18:39:34.536Z
Engine\Content\Internationalization\icudt53l\lang\en_SC.res	2017-04-13T18:39:34.537Z
Engine\Content\Internationalization\icudt53l\lang\en_SD.res	2017-04-13T18:39:34.538Z
Engine\Content\Internationalization\icudt53l\lang\en_SG.res	2017-04-13T18:39:34.543Z
Engine\Content\Internationalization\icudt53l\lang\en_SH.res	2017-04-13T18:39:34.544Z
Engine\Content\Internationalization\icudt53l\lang\en_SL.res	2017-04-13T18:39:34.545Z
Engine\Content\Internationalization\icudt53l\lang\en_SS.res	2017-04-13T18:39:34.546Z
Engine\Content\Internationalization\icudt53l\lang\en_SX.res	2017-04-13T18:39:34.547Z
Engine\Content\Internationalization\icudt53l\lang\en_SZ.res	2017-04-13T18:39:34.548Z
Engine\Content\Internationalization\icudt53l\lang\en_TC.res	2017-04-13T18:39:34.549Z
Engine\Content\Internationalization\icudt53l\lang\en_TK.res	2017-04-13T18:39:34.550Z
Engine\Content\Internationalization\icudt53l\lang\en_TO.res	2017-04-13T18:39:34.551Z
Engine\Content\Internationalization\icudt53l\lang\en_TT.res	2017-04-13T18:39:34.552Z
Engine\Content\Internationalization\icudt53l\lang\en_TV.res	2017-04-13T18:39:34.553Z
Engine\Content\Internationalization\icudt53l\lang\en_TZ.res	2017-04-13T18:39:34.555Z
Engine\Content\Internationalization\icudt53l\lang\en_UG.res	2017-04-13T18:39:34.555Z
Engine\Content\Internationalization\icudt53l\lang\en_VC.res	2017-04-13T18:39:34.557Z
Engine\Content\Internationalization\icudt53l\lang\en_VG.res	2017-04-13T18:39:34.558Z
Engine\Content\Internationalization\icudt53l\lang\en_VU.res	2017-04-13T18:39:34.559Z
Engine\Content\Internationalization\icudt53l\lang\en_WS.res	2017-04-13T18:39:34.560Z
Engine\Content\Internationalization\icudt53l\lang\en_ZA.res	2017-04-13T18:39:34.561Z
Engine\Content\Internationalization\icudt53l\lang\en_ZM.res	2017-04-13T18:39:34.562Z
Engine\Content\Internationalization\icudt53l\lang\en_ZW.res	2017-04-13T18:39:34.563Z
Engine\Content\Internationalization\icudt53l\lang\leet.res	2017-04-13T18:39:34.569Z
Engine\Content\Internationalization\icudt53l\lang\pool.res	2017-04-13T18:39:34.570Z
Engine\Content\Internationalization\icudt53l\lang\res_index.res	2017-04-13T18:39:34.576Z
Engine\Content\Internationalization\icudt53l\lang\root.res	2017-04-13T18:39:34.577Z
Engine\Content\Internationalization\icudt53l\rbnf\en.res	2017-04-13T18:39:34.619Z
Engine\Content\Internationalization\icudt53l\rbnf\leet.res	2017-04-13T18:39:34.625Z
Engine\Content\Internationalization\icudt53l\rbnf\res_index.res	2017-04-13T18:39:34.630Z
Engine\Content\Internationalization\icudt53l\rbnf\root.res	2017-04-13T18:39:34.635Z
Engine\Content\Internationalization\icudt53l\region\en.res	2017-04-13T18:39:34.637Z
Engine\Content\Internationalization\icudt53l\region\en_150.res	2017-04-13T18:39:34.641Z
Engine\Content\Internationalization\icudt53l\region\en_AG.res	2017-04-13T18:39:34.642Z
Engine\Content\Internationalization\icudt53l\region\en_AI.res	2017-04-13T18:39:34.646Z
Engine\Content\Internationalization\icudt53l\region\en_AU.res	2017-04-13T18:39:34.647Z
Engine\Content\Internationalization\icudt53l\region\en_BB.res	2017-04-13T18:39:34.648Z
Engine\Content\Internationalization\icudt53l\region\en_BE.res	2017-04-13T18:39:34.650Z
Engine\Content\Internationalization\icudt53l\region\en_BM.res	2017-04-13T18:39:34.651Z
Engine\Content\Internationalization\icudt53l\region\en_BS.res	2017-04-13T18:39:34.656Z
Engine\Content\Internationalization\icudt53l\region\en_BW.res	2017-04-13T18:39:34.660Z
Engine\Content\Internationalization\icudt53l\region\en_BZ.res	2017-04-13T18:39:34.661Z
Engine\Content\Internationalization\icudt53l\region\en_CC.res	2017-04-13T18:39:34.662Z
Engine\Content\Internationalization\icudt53l\region\en_CK.res	2017-04-13T18:39:34.663Z
Engine\Content\Internationalization\icudt53l\region\en_CM.res	2017-04-13T18:39:34.664Z
Engine\Content\Internationalization\icudt53l\region\en_CX.res	2017-04-13T18:39:34.665Z
Engine\Content\Internationalization\icudt53l\region\en_DG.res	2017-04-13T18:39:34.666Z
Engine\Content\Internationalization\icudt53l\region\en_DM.res	2017-04-13T18:39:34.667Z
Engine\Content\Internationalization\icudt53l\region\en_ER.res	2017-04-13T18:39:34.667Z
Engine\Content\Internationalization\icudt53l\region\en_FJ.res	2017-04-13T18:39:34.668Z
Engine\Content\Internationalization\icudt53l\region\en_FK.res	2017-04-13T18:39:34.669Z
Engine\Content\Internationalization\icudt53l\region\en_FM.res	2017-04-13T18:39:34.670Z
Engine\Content\Internationalization\icudt53l\region\en_GB.res	2017-04-13T18:39:34.671Z
Engine\Content\Internationalization\icudt53l\region\en_GD.res	2017-04-13T18:39:34.672Z
Engine\Content\Internationalization\icudt53l\region\en_GG.res	2017-04-13T18:39:34.673Z
Engine\Content\Internationalization\icudt53l\region\en_GH.res	2017-04-13T18:39:34.674Z
Engine\Content\Internationalization\icudt53l\region\en_GI.res	2017-04-13T18:39:34.676Z
Engine\Content\Internationalization\icudt53l\region\en_GM.res	2017-04-13T18:39:34.676Z
Engine\Content\Internationalization\icudt53l\region\en_GY.res	2017-04-13T18:39:34.678Z
Engine\Content\Internationalization\icudt53l\region\en_HK.res	2017-04-13T18:39:34.679Z
Engine\Content\Internationalization\icudt53l\region\en_IE.res	2017-04-13T18:39:34.679Z
Engine\Content\Internationalization\icudt53l\region\en_IM.res	2017-04-13T18:39:34.680Z
Engine\Content\Internationalization\icudt53l\region\en_IN.res	2017-04-13T18:39:34.681Z
Engine\Content\Internationalization\icudt53l\region\en_IO.res	2017-04-13T18:39:34.682Z
Engine\Content\Internationalization\icudt53l\region\en_JE.res	2017-04-13T18:39:34.684Z
Engine\Content\Internationalization\icudt53l\region\en_JM.res	2017-04-13T18:39:34.687Z
Engine\Content\Internationalization\icudt53l\region\en_KE.res	2017-04-13T18:39:34.689Z
Engine\Content\Internationalization\icudt53l\region\en_KI.res	2017-04-13T18:39:34.690Z
Engine\Content\Internationalization\icudt53l\region\en_KN.res	2017-04-13T18:39:34.691Z
Engine\Content\Internationalization\icudt53l\region\en_KY.res	2017-04-13T18:39:34.692Z
Engine\Content\Internationalization\icudt53l\region\en_LC.res	2017-04-13T18:39:34.693Z
Engine\Content\Internationalization\icudt53l\region\en_LR.res	2017-04-13T18:39:34.695Z
Engine\Content\Internationalization\icudt53l\region\en_LS.res	2017-04-13T18:39:34.696Z
Engine\Content\Internationalization\icudt53l\region\en_MG.res	2017-04-13T18:39:34.697Z
Engine\Content\Internationalization\icudt53l\region\en_MO.res	2017-04-13T18:39:34.698Z
Engine\Content\Internationalization\icudt53l\region\en_MS.res	2017-04-13T18:39:34.699Z
Engine\Content\Internationalization\icudt53l\region\en_MT.res	2017-04-13T18:39:34.700Z
Engine\Content\Internationalization\icudt53l\region\en_MU.res	2017-04-13T18:39:34.701Z
Engine\Content\Internationalization\icudt53l\region\en_MW.res	2017-04-13T18:39:34.702Z
Engine\Content\Internationalization\icudt53l\region\en_NA.res	2017-04-13T18:39:34.703Z
Engine\Content\Internationalization\icudt53l\region\en_NF.res	2017-04-13T18:39:34.704Z
Engine\Content\Internationalization\icudt53l\region\en_NG.res	2017-04-13T18:39:34.705Z
Engine\Content\Internationalization\icudt53l\region\en_NH.res	2017-04-13T18:39:34.706Z
Engine\Content\Internationalization\icudt53l\region\en_NR.res	2017-04-13T18:39:34.707Z
Engine\Content\Internationalization\icudt53l\region\en_NU.res	2017-04-13T18:39:34.708Z
Engine\Content\Internationalization\icudt53l\region\en_NZ.res	2017-04-13T18:39:34.709Z
Engine\Content\Internationalization\icudt53l\region\en_PG.res	2017-04-13T18:39:34.710Z
Engine\Content\Internationalization\icudt53l\region\en_PH.res	2017-04-13T18:39:34.711Z
Engine\Content\Internationalization\icudt53l\region\en_PK.res	2017-04-13T18:39:34.712Z
Engine\Content\Internationalization\icudt53l\region\en_PN.res	2017-04-13T18:39:34.713Z
Engine\Content\Internationalization\icudt53l\region\en_PW.res	2017-04-13T18:39:34.714Z
Engine\Content\Internationalization\icudt53l\region\en_RH.res	2017-04-13T18:39:34.715Z
Engine\Content\Internationalization\icudt53l\region\en_RW.res	2017-04-13T18:39:34.716Z
Engine\Content\Internationalization\icudt53l\region\en_SB.res	2017-04-13T18:39:34.717Z
Engine\Content\Internationalization\icudt53l\region\en_SC.res	2017-04-13T18:39:34.718Z
Engine\Content\Internationalization\icudt53l\region\en_SD.res	2017-04-13T18:39:34.720Z
Engine\Content\Internationalization\icudt53l\region\en_SG.res	2017-04-13T18:39:34.721Z
Engine\Content\Internationalization\icudt53l\region\en_SH.res	2017-04-13T18:39:34.722Z
Engine\Content\Internationalization\icudt53l\region\en_SL.res	2017-04-13T18:39:34.723Z
Engine\Content\Internationalization\icudt53l\region\en_SS.res	2017-04-13T18:39:34.724Z
Engine\Content\Internationalization\icudt53l\region\en_SX.res	2017-04-13T18:39:34.725Z
Engine\Content\Internationalization\icudt53l\region\en_SZ.res	2017-04-13T18:39:34.726Z
Engine\Content\Internationalization\icudt53l\region\en_TC.res	2017-04-13T18:39:34.728Z
Engine\Content\Internationalization\icudt53l\region\en_TK.res	2017-04-13T18:39:34.729Z
Engine\Content\Internationalization\icudt53l\region\en_TO.res	2017-04-13T18:39:34.731Z
Engine\Content\Internationalization\icudt53l\region\en_TT.res	2017-04-13T18:39:34.732Z
Engine\Content\Internationalization\icudt53l\region\en_TV.res	2017-04-13T18:39:34.733Z
Engine\Content\Internationalization\icudt53l\region\en_TZ.res	2017-04-13T18:39:34.733Z
Engine\Content\Internationalization\icudt53l\region\en_UG.res	2017-04-13T18:39:34.734Z
Engine\Content\Internationalization\icudt53l\region\en_VC.res	2017-04-13T18:39:34.736Z
Engine\Content\Internationalization\icudt53l\region\en_VG.res	2017-04-13T18:39:34.737Z
Engine\Content\Internationalization\icudt53l\region\en_VU.res	2017-04-13T18:39:34.737Z
Engine\Content\Internationalization\icudt53l\region\en_WS.res	2017-04-13T18:39:34.738Z
Engine\Content\Internationalization\icudt53l\region\en_ZA.res	2017-04-13T18:39:34.739Z
Engine\Content\Internationalization\icudt53l\region\en_ZM.res	2017-04-13T18:39:34.740Z
Engine\Content\Internationalization\icudt53l\region\en_ZW.res	2017-04-13T18:39:34.741Z
Engine\Content\Internationalization\icudt53l\region\leet.res	2017-04-13T18:39:34.742Z
Engine\Content\Internationalization\icudt53l\region\pool.res	2017-04-13T18:39:34.744Z
Engine\Content\Internationalization\icudt53l\region\res_index.res	2017-04-13T18:39:34.745Z
Engine\Content\Internationalization\icudt53l\region\root.res	2017-04-13T18:39:34.749Z
Engine\Content\Internationalization\icudt53l\zone\en.res	2017-04-13T18:39:34.787Z
Engine\Content\Internationalization\icudt53l\zone\en_001.res	2017-04-13T18:39:34.789Z
Engine\Content\Internationalization\icudt53l\zone\en_150.res	2017-04-13T18:39:34.789Z
Engine\Content\Internationalization\icudt53l\zone\en_AG.res	2017-04-13T18:39:34.791Z
Engine\Content\Internationalization\icudt53l\zone\en_AI.res	2017-04-13T18:39:34.792Z
Engine\Content\Internationalization\icudt53l\zone\en_AU.res	2017-04-13T18:39:34.793Z
Engine\Content\Internationalization\icudt53l\zone\en_BB.res	2017-04-13T18:39:34.794Z
Engine\Content\Internationalization\icudt53l\zone\en_BE.res	2017-04-13T18:39:34.795Z
Engine\Content\Internationalization\icudt53l\zone\en_BM.res	2017-04-13T18:39:34.796Z
Engine\Content\Internationalization\icudt53l\zone\en_BS.res	2017-04-13T18:39:34.797Z
Engine\Content\Internationalization\icudt53l\zone\en_BW.res	2017-04-13T18:39:34.798Z
Engine\Content\Internationalization\icudt53l\zone\en_BZ.res	2017-04-13T18:39:34.799Z
Engine\Content\Internationalization\icudt53l\zone\en_CA.res	2017-04-13T18:39:34.800Z
Engine\Content\Internationalization\icudt53l\zone\en_CC.res	2017-04-13T18:39:34.801Z
Engine\Content\Internationalization\icudt53l\zone\en_CK.res	2017-04-13T18:39:34.802Z
Engine\Content\Internationalization\icudt53l\zone\en_CM.res	2017-04-13T18:39:34.803Z
Engine\Content\Internationalization\icudt53l\zone\en_CX.res	2017-04-13T18:39:34.804Z
Engine\Content\Internationalization\icudt53l\zone\en_DG.res	2017-04-13T18:39:34.805Z
Engine\Content\Internationalization\icudt53l\zone\en_DM.res	2017-04-13T18:39:34.806Z
Engine\Content\Internationalization\icudt53l\zone\en_ER.res	2017-04-13T18:39:34.807Z
Engine\Content\Internationalization\icudt53l\zone\en_FJ.res	2017-04-13T18:39:34.808Z
Engine\Content\Internationalization\icudt53l\zone\en_FK.res	2017-04-13T18:39:34.809Z
Engine\Content\Internationalization\icudt53l\zone\en_FM.res	2017-04-13T18:39:34.810Z
Engine\Content\Internationalization\icudt53l\zone\en_GB.res	2017-04-13T18:39:34.811Z
Engine\Content\Internationalization\icudt53l\zone\en_GD.res	2017-04-13T18:39:34.812Z
Engine\Content\Internationalization\icudt53l\zone\en_GG.res	2017-04-13T18:39:34.814Z
Engine\Content\Internationalization\icudt53l\zone\en_GH.res	2017-04-13T18:39:34.815Z
Engine\Content\Internationalization\icudt53l\zone\en_GI.res	2017-04-13T18:39:34.816Z
Engine\Content\Internationalization\icudt53l\zone\en_GM.res	2017-04-13T18:39:34.817Z
Engine\Content\Internationalization\icudt53l\zone\en_GU.res	2017-04-13T18:39:34.818Z
Engine\Content\Internationalization\icudt53l\zone\en_GY.res	2017-04-13T18:39:34.820Z
Engine\Content\Internationalization\icudt53l\zone\en_HK.res	2017-04-13T18:39:34.821Z
Engine\Content\Internationalization\icudt53l\zone\en_IE.res	2017-04-13T18:39:34.822Z
Engine\Content\Internationalization\icudt53l\zone\en_IM.res	2017-04-13T18:39:34.823Z
Engine\Content\Internationalization\icudt53l\zone\en_IN.res	2017-04-13T18:39:34.824Z
Engine\Content\Internationalization\icudt53l\zone\en_IO.res	2017-04-13T18:39:34.826Z
Engine\Content\Internationalization\icudt53l\zone\en_JE.res	2017-04-13T18:39:34.827Z
Engine\Content\Internationalization\icudt53l\zone\en_JM.res	2017-04-13T18:39:34.828Z
Engine\Content\Internationalization\icudt53l\zone\en_KE.res	2017-04-13T18:39:34.829Z
Engine\Content\Internationalization\icudt53l\zone\en_KI.res	2017-04-13T18:39:34.830Z
Engine\Content\Internationalization\icudt53l\zone\en_KN.res	2017-04-13T18:39:34.831Z
Engine\Content\Internationalization\icudt53l\zone\en_KY.res	2017-04-13T18:39:34.832Z
Engine\Content\Internationalization\icudt53l\zone\en_LC.res	2017-04-13T18:39:34.833Z
Engine\Content\Internationalization\icudt53l\zone\en_LR.res	2017-04-13T18:39:34.834Z
Engine\Content\Internationalization\icudt53l\zone\en_LS.res	2017-04-13T18:39:34.835Z
Engine\Content\Internationalization\icudt53l\zone\en_MG.res	2017-04-13T18:39:34.837Z
Engine\Content\Internationalization\icudt53l\zone\en_MH.res	2017-04-13T18:39:34.838Z
Engine\Content\Internationalization\icudt53l\zone\en_MO.res	2017-04-13T18:39:34.840Z
Engine\Content\Internationalization\icudt53l\zone\en_MP.res	2017-04-13T18:39:34.841Z
Engine\Content\Internationalization\icudt53l\zone\en_MS.res	2017-04-13T18:39:34.842Z
Engine\Content\Internationalization\icudt53l\zone\en_MT.res	2017-04-13T18:39:34.843Z
Engine\Content\Internationalization\icudt53l\zone\en_MU.res	2017-04-13T18:39:34.845Z
Engine\Content\Internationalization\icudt53l\zone\en_MW.res	2017-04-13T18:39:34.846Z
Engine\Content\Internationalization\icudt53l\zone\en_NA.res	2017-04-13T18:39:34.851Z
Engine\Content\Internationalization\icudt53l\zone\en_NF.res	2017-04-13T18:39:34.852Z
Engine\Content\Internationalization\icudt53l\zone\en_NG.res	2017-04-13T18:39:34.853Z
Engine\Content\Internationalization\icudt53l\zone\en_NH.res	2017-04-13T18:39:34.858Z
Engine\Content\Internationalization\icudt53l\zone\en_NR.res	2017-04-13T18:39:34.859Z
Engine\Content\Internationalization\icudt53l\zone\en_NU.res	2017-04-13T18:39:34.860Z
Engine\Content\Internationalization\icudt53l\zone\en_NZ.res	2017-04-13T18:39:34.861Z
Engine\Content\Internationalization\icudt53l\zone\en_PG.res	2017-04-13T18:39:34.862Z
Engine\Content\Internationalization\icudt53l\zone\en_PH.res	2017-04-13T18:39:34.863Z
Engine\Content\Internationalization\icudt53l\zone\en_PK.res	2017-04-13T18:39:34.864Z
Engine\Content\Internationalization\icudt53l\zone\en_PN.res	2017-04-13T18:39:34.866Z
Engine\Content\Internationalization\icudt53l\zone\en_PW.res	2017-04-13T18:39:34.867Z
Engine\Content\Internationalization\icudt53l\zone\en_RH.res	2017-04-13T18:39:34.868Z
Engine\Content\Internationalization\icudt53l\zone\en_RW.res	2017-04-13T18:39:34.869Z
Engine\Content\Internationalization\icudt53l\zone\en_SB.res	2017-04-13T18:39:34.870Z
Engine\Content\Internationalization\icudt53l\zone\en_SC.res	2017-04-13T18:39:34.871Z
Engine\Content\Internationalization\icudt53l\zone\en_SD.res	2017-04-13T18:39:34.872Z
Engine\Content\Internationalization\icudt53l\zone\en_SG.res	2017-04-13T18:39:34.873Z
Engine\Content\Internationalization\icudt53l\zone\en_SH.res	2017-04-13T18:39:34.874Z
Engine\Content\Internationalization\icudt53l\zone\en_SL.res	2017-04-13T18:39:34.876Z
Engine\Content\Internationalization\icudt53l\zone\en_SS.res	2017-04-13T18:39:34.876Z
Engine\Content\Internationalization\icudt53l\zone\en_SX.res	2017-04-13T18:39:34.878Z
Engine\Content\Internationalization\icudt53l\zone\en_SZ.res	2017-04-13T18:39:34.879Z
Engine\Content\Internationalization\icudt53l\zone\en_TC.res	2017-04-13T18:39:34.880Z
Engine\Content\Internationalization\icudt53l\zone\en_TK.res	2017-04-13T18:39:34.881Z
Engine\Content\Internationalization\icudt53l\zone\en_TO.res	2017-04-13T18:39:34.882Z
Engine\Content\Internationalization\icudt53l\zone\en_TT.res	2017-04-13T18:39:34.883Z
Engine\Content\Internationalization\icudt53l\zone\en_TV.res	2017-04-13T18:39:34.884Z
Engine\Content\Internationalization\icudt53l\zone\en_TZ.res	2017-04-13T18:39:34.885Z
Engine\Content\Internationalization\icudt53l\zone\en_UG.res	2017-04-13T18:39:34.886Z
Engine\Content\Internationalization\icudt53l\zone\en_VC.res	2017-04-13T18:39:34.888Z
Engine\Content\Internationalization\icudt53l\zone\en_VG.res	2017-04-13T18:39:34.889Z
Engine\Content\Internationalization\icudt53l\zone\en_VU.res	2017-04-13T18:39:34.890Z
Engine\Content\Internationalization\icudt53l\zone\en_WS.res	2017-04-13T18:39:34.891Z
Engine\Content\Internationalization\icudt53l\zone\en_ZA.res	2017-04-13T18:39:34.892Z
Engine\Content\Internationalization\icudt53l\zone\en_ZM.res	2017-04-13T18:39:34.893Z
Engine\Content\Internationalization\icudt53l\zone\en_ZW.res	2017-04-13T18:39:34.894Z
Engine\Content\Internationalization\icudt53l\zone\leet.res	2017-04-13T18:39:34.899Z
Engine\Content\Internationalization\icudt53l\zone\pool.res	2017-04-13T18:39:34.903Z
Engine\Content\Internationalization\icudt53l\zone\res_index.res	2017-04-13T18:39:34.907Z
Engine\Content\Internationalization\icudt53l\zone\root.res	2017-04-13T18:39:34.908Z
Engine\Programs\CrashReportClient\Config\DefaultEngine.ini	2017-04-13T18:44:52.552Z
